simulation/qsim/nibble.msim.vcd
$comment
	File created using the following command:
		vcd file nibble.msim.vcd -direction
$end
$date
	Wed Nov 16 15:26:34 2016
$end
$version
	ModelSim Version 10.4d
$end
$timescale
	1ps
$end

$scope module complement2_vlg_vec_tst $end
$var reg 8 ! a [7:0] $end
$var reg 8 " b [7:0] $end
$var wire 1 # ovf $end
$var wire 1 $ s [7] $end
$var wire 1 % s [6] $end
$var wire 1 & s [5] $end
$var wire 1 ' s [4] $end
$var wire 1 ( s [3] $end
$var wire 1 ) s [2] $end
$var wire 1 * s [1] $end
$var wire 1 + s [0] $end

$scope module i1 $end
$var wire 1 , gnd $end
$var wire 1 - vcc $end
$var wire 1 . unknown $end
$var tri1 1 / devclrn $end
$var tri1 1 0 devpor $end
$var tri1 1 1 devoe $end
$var wire 1 2 b[0]~input_o $end
$var wire 1 3 b[1]~input_o $end
$var wire 1 4 b[2]~input_o $end
$var wire 1 5 b[3]~input_o $end
$var wire 1 6 b[4]~input_o $end
$var wire 1 7 b[5]~input_o $end
$var wire 1 8 b[6]~input_o $end
$var wire 1 9 b[7]~input_o $end
$var wire 1 : ovf~output_o $end
$var wire 1 ; s[0]~output_o $end
$var wire 1 < s[1]~output_o $end
$var wire 1 = s[2]~output_o $end
$var wire 1 > s[3]~output_o $end
$var wire 1 ? s[4]~output_o $end
$var wire 1 @ s[5]~output_o $end
$var wire 1 A s[6]~output_o $end
$var wire 1 B s[7]~output_o $end
$var wire 1 C a[7]~input_o $end
$var wire 1 D a[6]~input_o $end
$var wire 1 E a[5]~input_o $end
$var wire 1 F a[4]~input_o $end
$var wire 1 G a[3]~input_o $end
$var wire 1 H a[2]~input_o $end
$var wire 1 I a[1]~input_o $end
$var wire 1 J a[0]~input_o $end
$var wire 1 K Add0~6 $end
$var wire 1 L Add0~10 $end
$var wire 1 M Add0~14 $end
$var wire 1 N Add0~18 $end
$var wire 1 O Add0~22 $end
$var wire 1 P Add0~26 $end
$var wire 1 Q Add0~1_sumout $end
$var wire 1 R Add1~0_combout $end
$var wire 1 S Add0~5_sumout $end
$var wire 1 T Add0~9_sumout $end
$var wire 1 U Add0~13_sumout $end
$var wire 1 V Add0~17_sumout $end
$var wire 1 W Add0~21_sumout $end
$var wire 1 X Add0~25_sumout $end
$var wire 1 Y Add1~1_combout $end
$upscope $end
$upscope $end
$enddefinitions $end
#0
$dumpvars
b10111011 !
b0 "
0#
1+
0*
1)
0(
0'
0&
1%
0$
0,
1-
x.
1/
10
11
02
03
04
05
06
07
08
09
0:
1;
0<
1=
0>
0?
0@
1A
0B
1C
0D
1E
1F
1G
0H
1I
1J
0K
0L
0M
0N
0O
0P
0Q
1R
0S
1T
0U
0V
0W
1X
1Y
$end
#5000
b111011 !
b1111011 !
b1011011 !
b1010011 !
b1010001 !
b1010000 !
0I
0G
0E
1D
0C
0J
0;
0Y
0R
1K
0+
0X
1W
1U
1>
1@
0A
1:
1B
1L
1$
1#
0%
1&
1(
0T
0=
1M
0)
0U
0>
0(
1V
1?
1'
#10000
b11010000 !
b10010000 !
b10110000 !
1E
0D
1C
1Y
1R
1X
0W
0@
1A
0:
0B
0$
0#
1%
0&
#15000
b10100000 !
b10100001 !
b100001 !
0F
0C
1J
1;
0Y
0R
1N
0K
1+
0V
1S
1<
0?
1:
1B
0L
1$
1#
0'
1*
1W
1T
1=
1@
0M
1&
1)
1U
1>
0N
1(
1V
1?
1'
0W
0@
0&
#20000
b101001 !
b101011 !
b1011 !
1I
1G
0E
1W
0U
0S
0<
0>
1@
1&
0(
0*
#25000
b1111 !
b111 !
1H
0G
1U
0T
0=
1>
1(
0)
#30000
b10111 !
b10110 !
b10010110 !
b10110110 !
b10110010 !
0H
1F
1E
1C
0J
0;
1Y
1R
0+
0W
0V
1T
1S
1<
1=
0?
0@
0:
0B
0$
0#
0&
0'
1)
1*
#35000
b11110010 !
b11110000 !
b11110001 !
b1110001 !
b1110101 !
0I
1H
1D
0C
1J
1;
0Y
0R
1+
0X
0T
0=
0A
1:
1B
1$
1#
0%
0)
#40000
b1111101 !
b1101101 !
b1001101 !
b1101 !
b1001 !
0H
1G
0F
0E
0D
1X
1W
1V
0U
1T
1=
0>
1?
1@
1A
1%
1&
1'
0(
1)
#45000
b1011 !
b10001011 !
b10001111 !
1I
1H
1C
1Y
1R
0T
0S
0<
0=
0:
0B
0$
0#
0)
0*
#50000
b10001110 !
b10000110 !
b10100110 !
b11100110 !
0G
1E
1D
0J
0;
0+
0X
0W
1U
1S
1<
1>
0@
0A
0%
0&
1(
1*
#55000
b11110110 !
b11110111 !
b11111111 !
b11011111 !
1G
1F
0E
1J
1;
1+
1W
0V
0U
0S
0<
0>
0?
1@
1&
0'
0(
0*
#60000
b1011111 !
b1011011 !
b1011010 !
0H
0C
0J
0;
0Y
0R
0+
1T
1S
1<
1=
1:
1B
1$
1#
1)
1*
#65000
b1011000 !
b1001000 !
b11001000 !
b11001100 !
b11001101 !
0I
1H
0F
1C
1J
1;
1Y
1R
1+
1V
0T
0=
1?
0:
0B
0$
0#
1'
0)
#70000
b11000101 !
b11100101 !
b11110101 !
b1110101 !
b1110100 !
0G
1F
1E
0C
0J
0;
0Y
0R
1K
0+
0W
0V
1U
0S
0<
1>
0?
0@
1:
1B
1$
1#
0&
0'
1(
0*
1T
1=
1)
#75000
b1110000 !
b1111000 !
b1011000 !
b1001000 !
0H
1G
0F
0E
1L
1W
1V
0U
0T
0=
0>
1?
1@
1&
1'
0(
0)
1U
1>
1(
#80000
b1000 !
b10001000 !
b10101000 !
b10111000 !
1F
1E
0D
1C
1Y
1R
1X
0W
0V
0?
0@
1A
0:
0B
0$
0#
1%
0&
0'
#85000
b10111010 !
b11111010 !
b11011010 !
b11001010 !
1I
0F
0E
1D
0K
0X
1W
1V
1S
1<
1?
1@
0A
0L
0%
1&
1'
1*
1T
1=
1)
0U
0>
0(
#90000
b11001110 !
b11000110 !
b11000100 !
b11100100 !
0I
1H
0G
1E
1K
0W
1U
0T
0S
0<
0=
1>
0@
0&
1(
0)
0*
1T
1=
1)
#95000
b11100110 !
b11000110 !
1I
0E
0K
1W
1S
1<
1@
1&
1*
0T
0=
0)
#100000
b11001110 !
b11001100 !
0I
1G
1K
0U
0S
0<
0>
0(
0*
1T
1=
1)
#105000
b11001101 !
b1001101 !
b1101 !
b101 !
0G
0D
0C
1J
1;
0Y
0R
0K
1+
1X
1U
1S
1<
1>
1A
1:
1B
1$
1#
1%
1(
1*
0T
0=
0)
#110000
b10101 !
b110101 !
b110100 !
b10110100 !
b11110100 !
1F
1E
1D
1C
0J
0;
1Y
1R
1K
0+
0X
0W
0V
0S
0<
0?
0@
0A
0:
0B
0$
0#
0%
0&
0'
0*
1T
1=
1)
#115000
b11110110 !
b11111110 !
b11111111 !
b1111111 !
1I
1G
0C
1J
1;
0Y
0R
0K
1+
0U
0>
1:
1B
1$
1#
0(
0T
0=
0)
#120000
b1101111 !
b1101110 !
0F
0J
0;
0+
1V
1S
1<
1?
1'
1*
#125000
b1100110 !
0G
1U
1>
1(
#130000
b100110 !
b10100110 !
b10110110 !
1F
0D
1C
1Y
1R
1X
0V
0?
1A
0:
0B
0$
0#
1%
0'
#135000
b10110010 !
b10110000 !
b11110000 !
b1110000 !
b1100000 !
0I
0H
0F
1D
0C
0Y
0R
1K
0X
1V
1T
0S
0<
1=
1?
0A
1:
1B
1L
1$
1#
0%
1'
1)
0*
0T
0=
1M
0)
0U
0>
1N
0(
0V
0?
0'
1W
1@
1&
#140000
b1000000 !
b1000001 !
b1000101 !
b1000111 !
b111 !
b10111 !
1I
1H
1F
0E
0D
1J
1;
1O
0N
0L
0K
1+
1X
0W
1V
1T
1=
1?
0@
1A
1P
0O
0M
1%
0&
1'
1)
0X
1W
1U
0T
0=
1>
1@
0A
1Q
0P
0%
1&
1(
0)
1X
0V
0?
1A
0Q
1Y
1R
1%
0'
0:
0B
0Y
0R
0$
0#
1:
1B
1$
1#
#145000
b11111 !
b10011111 !
b10011011 !
b11011011 !
0H
1G
1D
1C
1Y
1R
0X
0U
1T
1=
0>
0A
0:
0B
0$
0#
0%
0(
1)
#150000
b11111011 !
b11111001 !
b11110001 !
b1110001 !
b110001 !
0I
0G
1E
0D
0C
0Y
0R
1X
0W
1U
1S
1<
1>
0@
1A
1:
1B
1$
1#
1%
0&
1(
1*
#155000
b100001 !
b100101 !
b100111 !
b101111 !
b10101111 !
1I
1H
1G
0F
1C
1Y
1R
1V
0U
0T
0S
0<
0=
0>
1?
0:
0B
0$
0#
1'
0(
0)
0*
#160000
b10101110 !
b11101110 !
b11111110 !
b1111110 !
1F
1D
0C
0J
0;
0Y
0R
0+
0X
0V
1S
1<
0?
0A
1:
1B
1$
1#
0%
0'
1*
#165000
b1111010 !
b1110010 !
b110010 !
b10110010 !
0H
0G
0D
1C
1Y
1R
1X
1U
1T
1=
1>
1A
0:
0B
0$
0#
1%
1(
1)
#170000
b10010010 !
b10010000 !
b10011000 !
b11011000 !
0I
1G
0E
1D
1K
0X
1W
0U
0S
0<
0>
1@
0A
1L
0%
1&
0(
0*
0T
0=
0)
1U
1>
1(
#175000
b11011001 !
b11001001 !
b11001101 !
b11101101 !
b11101111 !
b11100111 !
b10100111 !
1I
1H
0G
0F
1E
0D
1J
1;
1M
0L
0K
1+
1X
0W
1V
0U
1T
1=
0>
1?
0@
1A
1N
0M
1%
0&
1'
0(
1)
0V
1U
0T
0=
1>
0?
0N
0'
1(
0)
1W
1V
1?
1@
1&
1'
0W
0@
0&
#180000
b10000111 !
b10001111 !
1G
0E
1W
0U
0>
1@
1&
0(
#185000
b1111 !
b1110 !
b1100 !
b101100 !
b100100 !
0I
0G
1E
0C
0J
0;
0Y
0R
1K
0+
0W
1U
1>
0@
1:
1B
1$
1#
0&
1(
1T
1=
1)
#190000
b110100 !
b1110100 !
b1110101 !
b1010101 !
1F
0E
1D
1J
1;
0K
1+
0X
1W
0V
1S
1<
0?
1@
0A
0%
1&
0'
1*
0T
0=
0)
#195000
b1010001 !
b11010001 !
b11010011 !
b11011011 !
b11001011 !
b10001011 !
b10101011 !
1I
0H
1G
0F
1E
0D
1C
1Y
1R
1X
0W
1V
0U
1T
0S
0<
1=
0>
1?
0@
1A
0:
0B
0$
0#
1%
0&
1'
0(
1)
0*
#200000
b10101010 !
b10101110 !
b10101100 !
b11101100 !
0I
1H
1D
0J
0;
1K
0+
0X
0T
0=
0A
0%
0)
1T
1=
1)
#205000
b1101100 !
b1100100 !
b1110100 !
b1010100 !
b1010101 !
b1010001 !
b1010011 !
1I
0H
0G
1F
0E
0C
1J
1;
0Y
0R
1L
0K
1+
1W
0V
1U
0T
0=
1>
0?
1@
1:
1B
1M
0L
1$
1#
1&
0'
1(
0)
0U
1T
1=
0>
0M
0(
1)
1V
1U
1>
1?
1'
1(
0V
0?
0'
#210000
b1000011 !
b1000001 !
0I
0F
1V
1S
1<
1?
1'
1*
#215000
b11000001 !
b11001001 !
b11101001 !
b11101000 !
b11111000 !
b11111010 !
1I
1G
1F
1E
1C
0J
0;
1Y
1R
0+
0W
0V
0U
0>
0?
0@
0:
0B
0$
0#
0&
0'
0(
#220000
b10111010 !
b111010 !
b110010 !
b100010 !
0G
0F
0D
0C
0Y
0R
1X
1V
1U
1>
1?
1A
1:
1B
1$
1#
1%
1'
1(
#225000
b100110 !
b110 !
b10000110 !
1H
0E
1C
1Y
1R
1W
0T
0=
1@
0:
0B
0$
0#
1&
0)
#230000
b10000111 !
b11000111 !
b11010111 !
b11010011 !
b11110011 !
0H
1F
1E
1D
1J
1;
1+
0X
0W
0V
1T
0S
0<
1=
0?
0@
0A
0%
0&
0'
1)
0*
#235000
b11110001 !
b11110000 !
b10110000 !
b10100000 !
b10000000 !
0I
0F
0E
0D
0J
0;
1K
0+
1X
1W
1V
1?
1@
1A
1L
1%
1&
1'
0T
0=
1M
0)
0U
0>
1N
0(
0V
0?
1O
0'
0W
0@
1P
0&
0X
0A
1Q
0%
0Y
1B
1$
#240000
b10000010 !
b10010010 !
1I
1F
0N
0K
1V
1S
1<
1?
0O
0L
1'
1*
1W
1T
1=
1@
0P
0M
1&
1)
1X
1U
1>
1A
0Q
1%
1(
0V
0?
1Y
0'
0B
0$
#245000
b10010 !
b10 !
0F
0C
0Y
0R
1V
1?
1:
1B
1$
1#
1'
#250000
b11 !
b1000011 !
b1100011 !
b1100001 !
b11100001 !
b11110001 !
0I
1F
1E
1D
1C
1J
1;
1Y
1R
1+
0X
0W
0V
0?
0@
0A
0:
0B
0$
0#
0%
0&
0'
#255000
b11110101 !
b11110100 !
b10110100 !
b10010100 !
b10010110 !
1I
1H
0E
0D
0J
0;
0+
1X
1W
0T
0=
1@
1A
1%
1&
0)
#260000
b10110 !
b110 !
b10 !
b11 !
b100011 !
0H
0F
1E
0C
1J
1;
0Y
0R
1+
0W
1V
1T
0S
0<
1=
1?
0@
1:
1B
1$
1#
0&
1'
1)
0*
#265000
b10100011 !
b10110011 !
1F
1C
1Y
1R
0V
0?
0:
0B
0$
0#
0'
#270000
b10111011 !
b11111011 !
b11111001 !
b11111000 !
b11011000 !
0I
1G
0E
1D
0J
0;
1K
0+
0X
1W
0U
0>
1@
0A
1L
0%
1&
0(
0T
0=
0)
1U
1>
1(
#275000
b11011100 !
b1011100 !
b1001100 !
b1000100 !
b100 !
b110 !
b111 !
1I
1H
0G
0F
0D
0C
1J
1;
0Y
0R
1M
0L
0K
1+
1X
1V
0U
1T
1=
0>
1?
1A
1:
1B
1N
0M
1$
1#
1%
1'
0(
1)
0V
1U
0T
0=
1>
0?
1O
0N
0'
1(
0)
0W
1V
1?
0@
1P
0O
0&
1'
0X
1W
1@
0A
1Q
0P
0%
1&
1X
1A
0Q
1Y
1R
1%
0:
0B
0Y
0R
0$
0#
1:
1B
1$
1#
#280000
b100111 !
b100101 !
0I
1E
0W
1S
1<
0@
0&
1*
#285000
b10100101 !
b10101101 !
b11101101 !
b11001101 !
b11001111 !
1I
1G
0E
1D
1C
1Y
1R
0X
1W
0U
0S
0<
0>
1@
0A
0:
0B
0$
0#
0%
1&
0(
0*
#290000
b11011111 !
b11111111 !
b11111101 !
0I
1F
1E
0W
0V
1S
1<
0?
0@
0&
0'
1*
#295000
b1111101 !
b111101 !
b11101 !
b11111 !
1I
0E
0D
0C
0Y
0R
1X
1W
0S
0<
1@
1A
1:
1B
1$
1#
1%
1&
0*
#300000
b11011 !
b11010 !
b1010 !
b101010 !
0H
0F
1E
0J
0;
0+
0W
1V
1T
1S
1<
1=
1?
0@
0&
1'
1)
1*
#305000
b100010 !
b10100010 !
b10100000 !
b10110000 !
0I
0G
1F
1C
1Y
1R
1K
0V
1U
0S
0<
1>
0?
0:
0B
1L
0$
0#
0'
1(
0*
0T
0=
1M
0)
0U
0>
0(
1V
1?
1'
#310000
b11110000 !
b11110001 !
b11010001 !
0E
1D
1J
1;
0K
1+
0X
1W
1S
1<
1@
0A
0L
0%
1&
1*
1T
1=
0M
1)
1U
1>
1(
0V
0?
0'
#315000
b11000001 !
b11100001 !
0F
1E
0W
1V
1?
0@
0&
1'
#320000
b11101001 !
b1101001 !
b101001 !
b111001 !
b11001 !
1G
1F
0E
0D
0C
0Y
0R
1X
1W
0V
0U
0>
0?
1@
1A
1:
1B
1$
1#
1%
1&
0'
0(
#325000
b11101 !
b11111 !
b11110 !
b10011110 !
b11011110 !
b11001110 !
b11101110 !
1I
1H
0F
1E
1D
1C
0J
0;
1Y
1R
0+
0X
0W
1V
0T
0=
1?
0@
0A
0:
0B
0$
0#
0%
0&
1'
0)
#330000
b11100110 !
b11100100 !
b1100100 !
b100100 !
b110100 !
b10100 !
0I
0G
1F
0E
0D
0C
0Y
0R
1K
1X
1W
0V
1U
0S
0<
1>
0?
1@
1A
1:
1B
1$
1#
1%
1&
0'
1(
0*
1T
1=
1)
#335000
b10010100 !
b10110100 !
1E
1C
1Y
1R
0W
0@
0:
0B
0$
0#
0&
#340000
b10110101 !
b10111101 !
b11111101 !
b11101101 !
b1101101 !
b1001101 !
1G
0F
0E
1D
0C
1J
1;
0Y
0R
0K
1+
0X
1W
1V
0U
1S
1<
0>
1?
1@
0A
1:
1B
1$
1#
0%
1&
1'
0(
1*
0T
0=
0)
#345000
b1001111 !
b1001110 !
b1011110 !
b1111110 !
1I
1F
1E
0J
0;
0+
0W
0V
0?
0@
0&
0'
#350000
b1111010 !
b1110010 !
b110010 !
b110000 !
b110001 !
b10001 !
0I
0H
0G
0E
0D
1J
1;
1+
1X
1W
1U
1T
1=
1>
1@
1A
1%
1&
1(
1)
#355000
b11001 !
b1011001 !
b1111001 !
1G
1E
1D
0X
0W
0U
0>
0@
0A
0%
0&
0(
#360000
b11111001 !
b11111000 !
1C
0J
0;
1Y
1R
1K
0+
0S
0<
0:
0B
1L
0$
0#
0*
0T
0=
0)
1U
1>
1(
#365000
b11110000 !
b10110000 !
b10110001 !
0G
0D
1J
1;
1M
0K
1+
1X
0U
1S
1<
0>
1A
0L
1%
0(
1*
1V
1T
1=
1?
0M
1'
1)
1U
1>
1(
0V
0?
0'
#370000
b10110011 !
b10010011 !
b10011 !
b1010011 !
1I
0E
1D
0C
0Y
0R
0X
1W
0S
0<
1@
0A
1:
1B
1$
1#
0%
1&
0*
#375000
b1010111 !
b1011111 !
b1011110 !
b1111110 !
b111110 !
1H
1G
1E
0D
0J
0;
0+
1X
0W
0U
0T
1S
1<
0=
0>
0@
1A
1%
0&
0(
0)
1*
#380000
b101110 !
b101100 !
b101000 !
b1101000 !
0I
0H
0F
1D
1K
0X
1V
1T
0S
0<
1=
1?
0A
1L
0%
1'
1)
0*
0T
0=
0)
1U
1>
1(
#385000
b1100000 !
b1000000 !
0G
0E
1M
1W
0U
0>
1@
1N
1&
0(
0V
0?
1O
0'
0W
0@
0&
1X
1A
1%
#390000
b1010000 !
1F
0N
1V
1?
0O
1'
1W
1@
1&
0X
0A
0%
#395000
b11010000 !
b11010001 !
b11010011 !
1I
1C
1J
1;
1Y
1R
0K
1+
0:
0B
0L
0$
0#
1T
1=
0M
1)
1U
1>
1(
0V
0?
0'
#400000
b10010011 !
b10011011 !
b10111011 !
b10111010 !
b10111000 !
0I
1G
1E
0D
0J
0;
1K
0+
1X
0W
0U
0>
0@
1A
1L
1%
0&
0(
0T
0=
0)
1U
1>
1(
#405000
b10111100 !
b111100 !
b1111100 !
b1110100 !
b1110101 !
1H
0G
1D
0C
1J
1;
0Y
0R
1M
0L
0K
1+
0X
0U
1T
1S
1<
1=
0>
0A
1:
1B
0M
1$
1#
0%
0(
1)
1*
1V
1U
0T
0=
1>
1?
1'
1(
0)
0V
0?
0'
#410000
b1110111 !
b11110111 !
b11110110 !
1I
1C
0J
0;
1Y
1R
0+
0:
0B
0$
0#
#415000
b11010110 !
b11010100 !
0I
0E
1K
1W
0S
0<
1@
1&
0*
1T
1=
1)
#420000
b11000100 !
b11000000 !
b11001000 !
b1001000 !
b1001010 !
1I
0H
1G
0F
0C
0Y
0R
1L
0K
1V
0U
0T
1S
1<
0=
0>
1?
1:
1B
0L
1$
1#
1'
0(
0)
1*
1U
1T
1=
1>
1(
1)
0U
0>
0(
#425000
b1010 !
b11010 !
b11110 !
b10011110 !
b10011100 !
0I
1H
1F
0D
1C
1Y
1R
1K
1X
0V
0T
0S
0<
0=
0?
1A
0:
0B
0$
0#
1%
0'
0)
0*
1T
1=
1)
#430000
b10011101 !
b10111101 !
b10110101 !
b10110001 !
b110001 !
b110011 !
1I
0H
0G
1E
0C
1J
1;
0Y
0R
1L
0K
1+
0W
1U
0T
0=
1>
0@
1:
1B
1M
0L
1$
1#
0&
1(
0)
0U
1T
1=
0>
0M
0(
1)
1V
1U
1>
1?
1'
1(
0V
0?
0'
#435000
b1110011 !
b1010011 !
b1010111 !
b1010101 !
0I
1H
0E
1D
0X
1W
0T
1S
1<
0=
1@
0A
0%
1&
0)
1*
#440000
b1010100 !
b1011100 !
b11100 !
b111100 !
b111110 !
1I
1G
1E
0D
0J
0;
0+
1X
0W
0U
0>
0@
1A
1%
0&
0(
#445000
b111010 !
b110010 !
b110000 !
0I
0H
0G
1K
1U
1T
0S
0<
1=
1>
1L
1(
1)
0*
0T
0=
1M
0)
0U
0>
0(
1V
1?
1'
#450000
b110001 !
b1110001 !
b1111001 !
1G
1D
1J
1;
0M
0K
1+
0X
1U
1S
1<
1>
0A
0L
0%
1(
1*
0V
1T
1=
0?
0'
1)
0U
0>
0(
#455000
b1101001 !
b1001001 !
b1001101 !
b1001111 !
b1001110 !
b1000110 !
1I
1H
0G
0F
0E
0J
0;
0+
1W
1V
1U
0T
0=
1>
1?
1@
1&
1'
1(
0)
#460000
b11000110 !
b10000110 !
b10010110 !
b10110110 !
b10110010 !
b10110000 !
b10111000 !
0I
0H
1G
1F
1E
0D
1C
1Y
1R
1K
1X
0W
0V
0U
1T
0S
0<
1=
0>
0?
0@
1A
0:
0B
1L
0$
0#
1%
0&
0'
0(
1)
0*
0T
0=
0)
1U
1>
1(
#465000
b10101000 !
b10001000 !
0F
0E
1W
1V
1?
1@
1&
1'
#470000
b10001001 !
b10001101 !
b10001111 !
1I
1H
1J
1;
0L
0K
1+
1T
1=
1)
0U
0T
0=
0>
0(
0)
#475000
b11001111 !
b11000111 !
b11100111 !
0G
1E
1D
0X
0W
1U
1>
0@
0A
0%
0&
1(
#480000
b11100011 !
b11100001 !
b10100001 !
b10101001 !
b10001001 !
0I
0H
1G
0E
0D
1X
1W
0U
1T
1S
1<
1=
0>
1@
1A
1%
1&
0(
1)
1*
#485000
b1001 !
b11001 !
1F
0C
0Y
0R
0V
0?
1:
1B
1$
1#
0'
#490000
b11000 !
b11100 !
b1011100 !
b1010100 !
b1110100 !
b11110100 !
1H
0G
1E
1D
1C
0J
0;
1Y
1R
1K
0+
0X
0W
1U
0T
0S
0<
0=
1>
0@
0A
0:
0B
0$
0#
0%
0&
1(
0)
0*
1T
1=
1)
#495000
b11110110 !
b11100110 !
b11100010 !
b11101010 !
b11001010 !
b1001010 !
1I
0H
1G
0F
0E
0C
0Y
0R
1L
0K
1W
1V
0U
0T
1S
1<
0=
0>
1?
1@
1:
1B
0L
1$
1#
1&
1'
0(
0)
1*
1U
1T
1=
1>
1(
1)
0U
0>
0(
#500000
b1010 !
b11010 !
b11110 !
b10110 !
1H
0G
1F
0D
1X
0V
1U
0T
0=
1>
0?
1A
1%
0'
1(
0)
#505000
b10111 !
b110111 !
b100111 !
0F
1E
1J
1;
1+
0W
1V
0S
0<
1?
0@
0&
1'
0*
#510000
b100101 !
b10100101 !
b11100101 !
b11100100 !
b11000100 !
b11010100 !
0I
1F
0E
1D
1C
0J
0;
1Y
1R
1K
0+
0X
1W
0V
0?
1@
0A
0:
0B
0$
0#
0%
1&
0'
1T
1=
1)
#515000
b11010000 !
b11011000 !
b11011010 !
b10011010 !
b10011011 !
1I
0H
1G
0D
1J
1;
1L
0K
1+
1X
0U
0T
0=
0>
1A
0L
1%
0(
0)
1U
1T
1=
1>
1(
1)
0U
0>
0(
#520000
b10001011 !
b10001111 !
b10001101 !
b11001101 !
b11001100 !
0I
1H
0F
1D
0J
0;
1K
0+
0X
1V
0T
0=
1?
0A
0%
1'
0)
1T
1=
1)
#525000
b1001100 !
b1001110 !
b1110 !
b1111 !
1I
0D
0C
1J
1;
0Y
0R
0K
1+
1X
1A
1:
1B
1$
1#
1%
0T
0=
0)
#530000
b101111 !
b101011 !
b10101011 !
0H
1E
1C
1Y
1R
0W
1T
1=
0@
0:
0B
0$
0#
0&
1)
#535000
b10111011 !
b10111001 !
b10111000 !
b10011000 !
0I
1F
0E
0J
0;
1K
0+
1W
0V
0?
1@
1L
1&
0'
0T
0=
0)
1U
1>
1(
#540000
b10010000 !
b11010000 !
b11000000 !
b11000010 !
b11000011 !
b11100011 !
1I
0G
0F
1E
1D
1J
1;
1M
0K
1+
0X
0W
1V
0U
0>
1?
0@
0A
1N
0L
0%
0&
1'
0(
0V
1T
1=
0?
0M
0'
1)
1W
1U
1>
1@
0N
1&
1(
1V
1?
1'
0W
0@
0&
#545000
b11101011 !
b10101011 !
b10111011 !
b10111010 !
1G
1F
0D
0J
0;
0+
1X
0V
0U
1S
1<
0>
0?
1A
1%
0'
0(
1*
#550000
b10111000 !
b10011000 !
b11011000 !
b11001000 !
b11001001 !
0I
0F
0E
1D
1J
1;
1+
0X
1W
1V
1?
1@
0A
0%
1&
1'
#555000
b11001011 !
1I
0S
0<
0*
#560000
b1001011 !
b1000011 !
b1100011 !
b1110011 !
b1110001 !
0I
0G
1F
1E
0C
0Y
0R
0W
0V
1U
1S
1<
1>
0?
0@
1:
1B
1$
1#
0&
0'
1(
1*
#565000
b110001 !
b110000 !
b10000 !
b0 !
0F
0E
0D
0J
0;
1K
0+
1X
1W
1V
0S
0<
1?
1@
1A
1L
1%
1&
1'
0*
0T
0=
1M
0)
0U
0>
1N
0(
0V
0?
1O
0'
0W
0@
1P
0&
0X
0A
1Q
0%
1Y
1R
0:
0B
0$
0#
#570000
b10000000 !
b10001000 !
b10001010 !
b10101010 !
b10111010 !
1I
1G
1F
1E
1C
0Y
0O
0N
0M
0K
1W
1V
1U
1S
1<
1>
1?
1@
1B
0P
0L
1$
1&
1'
1(
1*
1X
0W
0V
1T
1=
0?
0@
1A
0Q
1%
0&
0'
1)
0U
0>
1Y
0(
0B
0$
#575000
b10111110 !
b11111110 !
b1111110 !
b1110110 !
b1010110 !
1H
0G
0E
1D
0C
0Y
0R
0X
1W
1U
0T
0=
1>
1@
0A
1:
1B
1$
1#
0%
1&
1(
0)
#580000
b1010100 !
b10100 !
b10010100 !
b10011100 !
0I
1G
0D
1C
1Y
1R
1K
1X
0U
0S
0<
0>
1A
0:
0B
0$
0#
1%
0(
0*
1T
1=
1)
#585000
b10001100 !
b10001000 !
b10101000 !
b11101000 !
b11100000 !
0H
0G
0F
1E
1D
1L
0X
0W
1V
1U
0T
0=
1>
1?
0@
0A
1M
0%
0&
1'
1(
0)
0U
0>
1N
0(
0V
0?
0'
1W
1@
1&
#590000
b11100001 !
b1100001 !
b1110001 !
b1110101 !
b1111101 !
1H
1G
1F
0C
1J
1;
0Y
0R
0N
0M
0L
0K
1+
1V
1U
1T
1S
1<
1=
1>
1?
1:
1B
1$
1#
1'
1(
1)
1*
0W
0V
0U
0T
0=
0>
0?
0@
0&
0'
0(
0)
#595000
b111101 !
b111100 !
b110100 !
0G
0D
0J
0;
1K
0+
1X
1U
0S
0<
1>
1A
1%
1(
0*
1T
1=
1)
#600000
b110110 !
b10110 !
b10010110 !
b10010111 !
b10011111 !
1I
1G
0E
1C
1J
1;
1Y
1R
0K
1+
1W
0U
0>
1@
0:
0B
0$
0#
1&
0(
0T
0=
0)
#605000
b11011111 !
b11011110 !
1D
0J
0;
0+
0X
1S
1<
0A
0%
1*
#610000
b11011010 !
b11011000 !
b11010000 !
0I
0H
0G
1K
1U
1T
0S
0<
1=
1>
1L
1(
1)
0*
0T
0=
1M
0)
0U
0>
0(
1V
1?
1'
#615000
b10010000 !
b10010001 !
b10010011 !
1I
0D
1J
1;
0K
1+
1X
1A
0L
1%
1T
1=
0M
1)
1U
1>
1(
0V
0?
0'
#620000
b10000011 !
b11 !
b111 !
b1111 !
b1001111 !
b1001110 !
1H
1G
0F
1D
0C
0J
0;
0Y
0R
0+
0X
1V
0U
0T
1S
1<
0=
0>
1?
0A
1:
1B
1$
1#
0%
1'
0(
0)
1*
#625000
b1101110 !
b1101100 !
b1111100 !
b1111000 !
b1111001 !
0I
0H
1F
1E
1J
1;
1+
0W
0V
1T
1=
0?
0@
0&
0'
1)
#630000
b1011001 !
b1011101 !
b1011100 !
1H
0E
0J
0;
1K
0+
1W
0T
0S
0<
0=
1@
1&
0)
0*
1T
1=
1)
#635000
b11011100 !
b10011100 !
b10001100 !
b10001000 !
0H
0F
0D
1C
1Y
1R
1L
1X
1V
0T
0=
1?
1A
0:
0B
0$
0#
1%
1'
0)
1U
1>
1(
#640000
b10000000 !
b0 !
b10000 !
0G
1F
0C
0Y
0R
1M
0V
0U
0>
0?
1:
1B
1$
1#
0'
0(
1V
1?
1'
#645000
b1010000 !
b1010100 !
b11010100 !
b11000100 !
1H
0F
1D
1C
1Y
1R
1N
0L
0X
0V
1T
1=
0?
0A
0:
0B
1O
0M
0$
0#
0%
0'
1)
0W
1U
1>
0@
0N
0&
1(
1X
1V
1?
1A
0O
1%
1'
1W
1@
1&
0X
0A
0%
#650000
b11000110 !
b11100110 !
b11100111 !
b11100011 !
b1100011 !
b1110011 !
1I
0H
1F
1E
0C
1J
1;
0Y
0R
1L
0K
1+
0W
0V
0T
0=
0?
0@
1:
1B
1M
0L
1$
1#
0&
0'
0)
0U
1T
1=
0>
0M
0(
1)
1V
1U
1>
1?
1'
1(
0V
0?
0'
#655000
b1111011 !
b111011 !
b10111011 !
1G
0D
1C
1Y
1R
1X
0U
0>
1A
0:
0B
0$
0#
1%
0(
#660000
b10101011 !
b101011 !
0F
0C
0Y
0R
1V
1?
1:
1B
1$
1#
1'
#665000
b101010 !
b101110 !
b100110 !
b1100110 !
1H
0G
1D
0J
0;
0+
0X
1U
0T
1S
1<
0=
1>
0A
0%
1(
0)
1*
#670000
b1100100 !
b1110100 !
b1111100 !
b111100 !
0I
1G
1F
0D
1K
1X
0V
0U
0S
0<
0>
0?
1A
1%
0'
0(
0*
1T
1=
1)
#675000
b10111100 !
b10111000 !
b10111010 !
b11111010 !
1I
0H
1D
1C
1Y
1R
1L
0K
0X
0T
1S
1<
0=
0A
0:
0B
0L
0$
0#
0%
0)
1*
1U
1T
1=
1>
1(
1)
0U
0>
0(
