simulation/qsim/nibble.msim.vcd
$comment
	File created using the following command:
		vcd file nibble.msim.vcd -direction
$end
$date
	Wed Nov 16 14:50:13 2016
$end
$version
	ModelSim Version 10.4d
$end
$timescale
	1ps
$end

$scope module sum1_vlg_vec_tst $end
$var reg 5 ! a [4:0] $end
$var wire 1 " ovf $end
$var wire 1 # s [4] $end
$var wire 1 $ s [3] $end
$var wire 1 % s [2] $end
$var wire 1 & s [1] $end
$var wire 1 ' s [0] $end

$scope module i1 $end
$var wire 1 ( gnd $end
$var wire 1 ) vcc $end
$var wire 1 * unknown $end
$var tri1 1 + devclrn $end
$var tri1 1 , devpor $end
$var tri1 1 - devoe $end
$var wire 1 . ovf~output_o $end
$var wire 1 / s[0]~output_o $end
$var wire 1 0 s[1]~output_o $end
$var wire 1 1 s[2]~output_o $end
$var wire 1 2 s[3]~output_o $end
$var wire 1 3 s[4]~output_o $end
$var wire 1 4 a[4]~input_o $end
$var wire 1 5 a[3]~input_o $end
$var wire 1 6 a[2]~input_o $end
$var wire 1 7 a[0]~input_o $end
$var wire 1 8 a[1]~input_o $end
$var wire 1 9 Add1~0_combout $end
$var wire 1 : Add0~0_combout $end
$var wire 1 ; Add0~1_combout $end
$var wire 1 < Add0~2_combout $end
$var wire 1 = Add1~1_combout $end
$upscope $end
$upscope $end
$enddefinitions $end
#0
$dumpvars
b0 !
0"
1'
0&
0%
0$
0#
0(
1)
x*
1+
1,
1-
0.
1/
00
01
02
03
04
05
06
07
08
09
0:
0;
0<
0=
$end
#10000
b1 !
17
0/
0'
1:
10
1&
#20000
b11 !
b10 !
07
18
1/
1'
#30000
b11 !
17
0/
0'
1;
0:
00
11
1%
0&
#40000
b111 !
b101 !
b100 !
07
08
16
1/
1'
#50000
b101 !
17
0/
0'
1:
10
1&
#60000
b111 !
b110 !
07
18
1/
1'
#70000
b111 !
17
0/
0'
1<
0;
0:
00
01
12
1$
0%
0&
#80000
b1111 !
b1011 !
b1001 !
b1000 !
07
08
06
15
1/
1'
#90000
b1001 !
17
0/
0'
1:
10
1&
#100000
b1011 !
b1010 !
07
18
1/
1'
#110000
b1011 !
17
0/
0'
1;
0:
00
11
1%
0&
#120000
b1111 !
b1101 !
b1100 !
07
08
16
1/
1'
#130000
b1101 !
17
0/
0'
1:
10
1&
#140000
b1111 !
b1110 !
07
18
1/
1'
#150000
b1111 !
17
0/
0'
1=
0<
0;
0:
19
1.
00
01
02
13
1#
0$
0%
0&
1"
#160000
b11111 !
b10111 !
b10011 !
b10001 !
b10000 !
07
08
06
05
14
1/
1'
09
0.
0"
#170000
b10001 !
17
0/
0'
1:
10
1&
#180000
b10011 !
b10010 !
07
18
1/
1'
#190000
b10011 !
17
0/
0'
1;
0:
00
11
1%
0&
#200000
b10111 !
b10101 !
b10100 !
07
08
16
1/
1'
#210000
b10101 !
17
0/
0'
1:
10
1&
#220000
b10111 !
b10110 !
07
18
1/
1'
#230000
b10111 !
17
0/
0'
1<
0;
0:
00
01
12
1$
0%
0&
#240000
b11111 !
b11011 !
b11001 !
b11000 !
07
08
06
15
1/
1'
#250000
b11001 !
17
0/
0'
1:
10
1&
#260000
b11011 !
b11010 !
07
18
1/
1'
#270000
b11011 !
17
0/
0'
1;
0:
00
11
1%
0&
#280000
b11111 !
b11101 !
b11100 !
07
08
16
1/
1'
#290000
b11101 !
17
0/
0'
1:
10
1&
#300000
b11111 !
b11110 !
07
18
1/
1'
#310000
b11111 !
17
0/
0'
0=
0<
0;
0:
00
01
02
03
0#
0$
0%
0&
#320000
b1111 !
b111 !
b11 !
b1 !
b0 !
07
08
06
05
04
1/
1'
#330000
b1 !
17
0/
0'
1:
10
1&
#340000
b11 !
b10 !
07
18
1/
1'
#350000
b11 !
17
0/
0'
1;
0:
00
11
1%
0&
#360000
b111 !
b101 !
b100 !
07
08
16
1/
1'
#370000
b101 !
17
0/
0'
1:
10
1&
#380000
b111 !
b110 !
07
18
1/
1'
#390000
b111 !
17
0/
0'
1<
0;
0:
00
01
12
1$
0%
0&
#400000
b1111 !
b1011 !
b1001 !
b1000 !
07
08
06
15
1/
1'
#410000
b1001 !
17
0/
0'
1:
10
1&
#420000
b1011 !
b1010 !
07
18
1/
1'
#430000
b1011 !
17
0/
0'
1;
0:
00
11
1%
0&
#440000
b1111 !
b1101 !
b1100 !
07
08
16
1/
1'
#450000
b1101 !
17
0/
0'
1:
10
1&
#460000
b1111 !
b1110 !
07
18
1/
1'
#470000
b1111 !
17
0/
0'
1=
0<
0;
0:
19
1.
00
01
02
13
1#
0$
0%
0&
1"
#480000
b11111 !
b10111 !
b10011 !
b10001 !
b10000 !
07
08
06
05
14
1/
1'
09
0.
0"
#490000
b10001 !
17
0/
0'
1:
10
1&
#500000
b10011 !
b10010 !
07
18
1/
1'
#510000
b10011 !
17
0/
0'
1;
0:
00
11
1%
0&
#520000
b10111 !
b10101 !
b10100 !
07
08
16
1/
1'
#530000
b10101 !
17
0/
0'
1:
10
1&
#540000
b10111 !
b10110 !
07
18
1/
1'
#550000
b10111 !
17
0/
0'
1<
0;
0:
00
01
12
1$
0%
0&
#560000
b11111 !
b11011 !
b11001 !
b11000 !
07
08
06
15
1/
1'
#570000
b11001 !
17
0/
0'
1:
10
1&
#580000
b11011 !
b11010 !
07
18
1/
1'
#590000
b11011 !
17
0/
0'
1;
0:
00
11
1%
0&
#600000
b11111 !
b11101 !
b11100 !
07
08
16
1/
1'
#610000
b11101 !
17
0/
0'
1:
10
1&
#620000
b11111 !
b11110 !
07
18
1/
1'
#630000
b11111 !
17
0/
0'
0=
0<
0;
0:
00
01
02
03
0#
0$
0%
0&
#640000
b1111 !
b111 !
b11 !
b1 !
b0 !
07
08
06
05
04
1/
1'
#650000
b1 !
17
0/
0'
1:
10
1&
#660000
b11 !
b10 !
07
18
1/
1'
#670000
b11 !
17
0/
0'
1;
0:
00
11
1%
0&
#680000
b111 !
b101 !
b100 !
07
08
16
1/
1'
#690000
b101 !
17
0/
0'
1:
10
1&
#700000
b111 !
b110 !
07
18
1/
1'
#710000
b111 !
17
0/
0'
1<
0;
0:
00
01
12
1$
0%
0&
#720000
b1111 !
b1011 !
b1001 !
b1000 !
07
08
06
15
1/
1'
#730000
b1001 !
17
0/
0'
1:
10
1&
#740000
b1011 !
b1010 !
07
18
1/
1'
#750000
b1011 !
17
0/
0'
1;
0:
00
11
1%
0&
#760000
b1111 !
b1101 !
b1100 !
07
08
16
1/
1'
#770000
b1101 !
17
0/
0'
1:
10
1&
#780000
b1111 !
b1110 !
07
18
1/
1'
#790000
b1111 !
17
0/
0'
1=
0<
0;
0:
19
1.
00
01
02
13
1#
0$
0%
0&
1"
#800000
b11111 !
b10111 !
b10011 !
b10001 !
b10000 !
07
08
06
05
14
1/
1'
09
0.
0"
#810000
b10001 !
17
0/
0'
1:
10
1&
#820000
b10011 !
b10010 !
07
18
1/
1'
#830000
b10011 !
17
0/
0'
1;
0:
00
11
1%
0&
#840000
b10111 !
b10101 !
b10100 !
07
08
16
1/
1'
#850000
b10101 !
17
0/
0'
1:
10
1&
#860000
b10111 !
b10110 !
07
18
1/
1'
#870000
b10111 !
17
0/
0'
1<
0;
0:
00
01
12
1$
0%
0&
#880000
b11111 !
b11011 !
b11001 !
b11000 !
07
08
06
15
1/
1'
#890000
b11001 !
17
0/
0'
1:
10
1&
#900000
b11011 !
b11010 !
07
18
1/
1'
#910000
b11011 !
17
0/
0'
1;
0:
00
11
1%
0&
#920000
b11111 !
b11101 !
b11100 !
07
08
16
1/
1'
#930000
b11101 !
17
0/
0'
1:
10
1&
#940000
b11111 !
b11110 !
07
18
1/
1'
#950000
b11111 !
17
0/
0'
0=
0<
0;
0:
00
01
02
03
0#
0$
0%
0&
#960000
b1111 !
b111 !
b11 !
b1 !
b0 !
07
08
06
05
04
1/
1'
#970000
b1 !
17
0/
0'
1:
10
1&
#980000
b11 !
b10 !
07
18
1/
1'
#990000
b11 !
17
0/
0'
1;
0:
00
11
1%
0&
