simulation/qsim/nibble.msim.vcd
$comment
	File created using the following command:
		vcd file nibble.msim.vcd -direction
$end
$date
	Wed Nov 16 11:33:46 2016
$end
$version
	ModelSim Version 10.4d
$end
$timescale
	1ps
$end

$scope module decoder_vlg_vec_tst $end
$var reg 24 ! inst [23:0] $end
$var wire 1 " addr [3] $end
$var wire 1 # addr [2] $end
$var wire 1 $ addr [1] $end
$var wire 1 % addr [0] $end
$var wire 1 & op [2] $end
$var wire 1 ' op [1] $end
$var wire 1 ( op [0] $end
$var wire 1 ) x [7] $end
$var wire 1 * x [6] $end
$var wire 1 + x [5] $end
$var wire 1 , x [4] $end
$var wire 1 - x [3] $end
$var wire 1 . x [2] $end
$var wire 1 / x [1] $end
$var wire 1 0 x [0] $end
$var wire 1 1 y [7] $end
$var wire 1 2 y [6] $end
$var wire 1 3 y [5] $end
$var wire 1 4 y [4] $end
$var wire 1 5 y [3] $end
$var wire 1 6 y [2] $end
$var wire 1 7 y [1] $end
$var wire 1 8 y [0] $end

$scope module i1 $end
$var wire 1 9 gnd $end
$var wire 1 : vcc $end
$var wire 1 ; unknown $end
$var tri1 1 < devclrn $end
$var tri1 1 = devpor $end
$var tri1 1 > devoe $end
$var wire 1 ? inst[20]~input_o $end
$var wire 1 @ addr[0]~output_o $end
$var wire 1 A addr[1]~output_o $end
$var wire 1 B addr[2]~output_o $end
$var wire 1 C addr[3]~output_o $end
$var wire 1 D y[0]~output_o $end
$var wire 1 E y[1]~output_o $end
$var wire 1 F y[2]~output_o $end
$var wire 1 G y[3]~output_o $end
$var wire 1 H y[4]~output_o $end
$var wire 1 I y[5]~output_o $end
$var wire 1 J y[6]~output_o $end
$var wire 1 K y[7]~output_o $end
$var wire 1 L x[0]~output_o $end
$var wire 1 M x[1]~output_o $end
$var wire 1 N x[2]~output_o $end
$var wire 1 O x[3]~output_o $end
$var wire 1 P x[4]~output_o $end
$var wire 1 Q x[5]~output_o $end
$var wire 1 R x[6]~output_o $end
$var wire 1 S x[7]~output_o $end
$var wire 1 T op[0]~output_o $end
$var wire 1 U op[1]~output_o $end
$var wire 1 V op[2]~output_o $end
$var wire 1 W inst[16]~input_o $end
$var wire 1 X inst[17]~input_o $end
$var wire 1 Y inst[18]~input_o $end
$var wire 1 Z inst[19]~input_o $end
$var wire 1 [ inst[0]~input_o $end
$var wire 1 \ inst[1]~input_o $end
$var wire 1 ] inst[2]~input_o $end
$var wire 1 ^ inst[3]~input_o $end
$var wire 1 _ inst[4]~input_o $end
$var wire 1 ` inst[5]~input_o $end
$var wire 1 a inst[6]~input_o $end
$var wire 1 b inst[7]~input_o $end
$var wire 1 c inst[8]~input_o $end
$var wire 1 d inst[9]~input_o $end
$var wire 1 e inst[10]~input_o $end
$var wire 1 f inst[11]~input_o $end
$var wire 1 g inst[12]~input_o $end
$var wire 1 h inst[13]~input_o $end
$var wire 1 i inst[14]~input_o $end
$var wire 1 j inst[15]~input_o $end
$var wire 1 k inst[21]~input_o $end
$var wire 1 l inst[22]~input_o $end
$var wire 1 m inst[23]~input_o $end
$upscope $end
$upscope $end
$enddefinitions $end
#0
$dumpvars
b111001111101100100101011 !
1%
1$
1#
0"
1(
1'
1&
10
0/
0.
1-
1,
0+
1*
1)
18
17
06
15
04
13
02
01
09
1:
x;
1<
1=
1>
0?
1@
1A
1B
0C
1D
1E
0F
1G
0H
1I
0J
0K
1L
0M
0N
1O
1P
0Q
1R
1S
1T
1U
1V
1W
1X
1Y
0Z
1[
1\
0]
1^
0_
1`
0a
0b
1c
0d
0e
1f
1g
0h
1i
1j
1k
1l
1m
$end
#5000
b11001111101100100101011 !
b11101111101100100101011 !
b11100111101100100101011 !
b11100110101100100101011 !
b11100110001100100101011 !
b11100110001100100001011 !
b11100110001100100011011 !
b11100110001100100011001 !
b11100110001100100011000 !
1?
0[
0\
1_
0`
0i
0j
0Y
0m
0V
0B
0S
0R
0I
1H
0E
0D
08
07
14
03
0*
0)
0#
0&
#10000
b10100110001100100011000 !
b10110110001100100011000 !
b10110100001100100011000 !
b10110100001110100011000 !
b10110100001111100011000 !
b10110100001111000011000 !
b10110100001111010011000 !
b10110100001111011011000 !
b10110100001111011010000 !
b110110100001111011010000 !
b110010100001111011010000 !
b110011100001111011010000 !
b110011101001111011010000 !
b110011101101111011010000 !
b110011101101111011110000 !
b110011101101111011110001 !
0?
1[
0^
1`
1a
1b
0c
1d
1e
1i
1j
0W
1Y
1Z
0k
1m
1V
0T
1C
1B
0@
1S
1R
1N
1M
0L
1K
1J
1I
0G
1D
18
05
13
12
11
00
1/
1.
1*
1)
0%
1#
1"
0(
1&
#15000
b100011101101111011110001 !
b100011001101111011110001 !
b100011001100111011110001 !
b100011001100011011110001 !
b100011001100011011110101 !
b100001001100011011110101 !
b100001011100011011110101 !
b100001011100011001110101 !
b1011100011001110101 !
b1011100011001110100 !
0[
1]
0b
0f
0g
1W
0X
0Z
0l
0m
0V
0U
0C
0A
1@
0P
0O
0K
1F
0D
08
16
01
0-
0,
1%
0$
0"
0'
0&
#20000
b1011100011001100100 !
b1011100011001101100 !
b101011100011001101100 !
b100011100011001101100 !
b100011100011001001100 !
b100011101011001001100 !
b100011101111001001100 !
b100011101111011001100 !
b100100011101111011001100 !
b100100011101111011001101 !
1?
1[
1^
0_
0`
1b
1f
1g
0Y
1m
1V
0B
1P
1O
1K
0I
0H
1G
1D
18
15
04
03
11
1-
1,
0#
1&
#25000
b100100011101111011001111 !
b100100011101111111001111 !
b100100011001111111001111 !
b100110011001111111001111 !
b100010011001111111001111 !
b100010011001111111101111 !
b100010011000111111101111 !
b100010011000011111101111 !
b10011000011111101111 !
b10011000011111101110 !
0?
0[
1\
1`
1c
0f
0g
0i
1Z
0m
0V
1C
0R
0P
0O
1L
1I
1E
0D
08
17
13
10
0-
0,
0*
1"
0&
#30000
b10011010011111101110 !
b10011010001111101110 !
b10011010001110101110 !
b10010010001110101110 !
b10010010010001110101110 !
b10010110010001110101110 !
b10010110010001110101010 !
b10010100010001110101010 !
b10010100010001110100010 !
b10011100010001110100010 !
b10011100010001110100000 !
b10011100010001010100000 !
b10011100010001010000000 !
b110011100010001010000000 !
0\
0]
0^
0`
0a
0c
0e
1h
0j
0W
1X
1Y
1l
1m
1V
1U
1B
1A
0@
0S
1Q
0N
0L
0J
0I
0G
0F
0E
07
06
05
03
02
00
0.
1+
0)
0%
1$
1#
1'
1&
#35000
b111011100010001010000000 !
b111011100010000010000000 !
b111011100010000000000000 !
b111011100110000000000000 !
b111001100110000000000000 !
b111101100110000000000000 !
b111101100111000000000000 !
b111101100111000000000001 !
b111101100101000000000001 !
b111101100101010000000001 !
b111101101101010000000001 !
b101101101101010000000001 !
b101101101101010000000101 !
b101101101101010000001101 !
b101101101101010000001111 !
b101101101101010000101111 !
1?
1[
1\
1]
1^
1`
0b
0d
1e
1g
0h
1i
1j
0Z
1k
0l
0U
1T
0C
1S
1R
0Q
1P
1N
0M
0K
1I
1G
1F
1E
1D
18
17
16
15
13
01
0/
1.
1,
0+
1*
1)
0"
1(
0'
#40000
b101101101101010000111111 !
b101101101101010001111111 !
b1101101101010001111111 !
b101101101010001111111 !
b101101101010011111111 !
b101101001010011111111 !
b101101000010011111111 !
b101101000010011111110 !
b101101000000011111110 !
b101100000000011111110 !
b101100000000011111010 !
b101100000000011011010 !
0[
0]
1_
0`
1a
1b
0e
0g
0i
0j
0k
0m
0V
0T
0S
0R
0P
0N
1K
1J
0I
1H
0F
0D
08
06
14
03
12
11
0.
0,
0*
0)
0(
0&
#45000
b101100000100011011010 !
b101000000100011011010 !
b101010000100011011010 !
b100010000100011011010 !
b100010000100111011010 !
b110010000100111011010 !
b10010000100111011010 !
b10010010100111011010 !
b10010010100111010010 !
b10010010100111010000 !
b10010010100111000000 !
b100010010010100111000000 !
b101010010010100111000000 !
b101010010110100111000000 !
b101010010111100111000000 !
b101010010111100111000100 !
0?
0\
1]
0^
0_
1c
1f
1g
1h
1i
1W
0X
0Y
1Z
1k
1m
1V
1T
1C
0B
0A
1@
1R
1Q
1P
1O
1L
0H
0G
1F
0E
07
16
05
04
10
1-
1,
1+
1*
1%
0$
0#
1"
1(
1&
#50000
b101010010111101111000100 !
b101010010111101101000100 !
b101010010111101101000101 !
b101010010111101101100101 !
b101010000111101101100101 !
b101011000111101101100101 !
b101001000111101101100101 !
b101001000101101101100101 !
b101001000101101101101101 !
b101001000101101101111101 !
b100001000101101101111101 !
b100001000001101101111101 !
1[
1^
1_
1`
0b
1d
0h
0i
0W
1Y
0Z
0k
0T
0C
1B
0@
0R
0Q
1M
0K
1I
1H
1G
1D
18
15
14
13
01
1/
0+
0*
0%
1#
0"
0(
#55000
b110001000001101101111101 !
b110001000001111101111101 !
b110001001001111101111101 !
b110001001001011101111101 !
b110001101001011101111101 !
b110101101001011101111101 !
b10101101001011101111101 !
b10101101000011101111101 !
b10101101000011101111001 !
b10101101000011101011001 !
b10101111000011101011001 !
b10101111010011101011001 !
b10101111010011101010001 !
b10101111010011101000001 !
b11101111010011101000001 !
b11101111110011101000001 !
1?
0]
0^
0_
0`
1e
0f
0g
1h
1i
1j
1W
1X
1k
1l
0m
0V
1U
1T
1A
1@
1S
1R
1Q
0P
0O
1N
0I
0H
0G
0F
06
05
04
03
1.
0-
0,
1+
1*
1)
1%
1$
1(
1'
0&
#60000
b11101111110011111000001 !
b11101111110111111000001 !
b111101111110111111000001 !
b111101111110111111000101 !
b111101111110111111100101 !
b111101101110111111100101 !
b110101101110111111100101 !
b110101101010111111100101 !
1]
1`
1b
1f
0i
0W
0k
1m
1V
0T
0@
0R
1O
1K
1I
1F
16
13
11
1-
0*
0%
0(
1&
#65000
b110101101010111011100101 !
b110101101010111011100111 !
b110101101010111011101111 !
b110101101010111011111111 !
b110101101010111001111111 !
b110101101010111001111011 !
b111101101010111001111011 !
b111101101110111001111011 !
1\
0]
1^
1_
0b
0c
1i
1k
1T
1R
0L
0K
1H
1G
0F
1E
17
06
15
14
01
00
1*
1(
#70000
b111101101110111000111011 !
b111101101110110000111011 !
b111111101110110000111011 !
b111111101110100000111011 !
b111111101111100000111011 !
b111111101111000000111011 !
b111111101111000000011011 !
b111111101111000000001011 !
b111111101111000000001111 !
b110111101111000000001111 !
b110111101011000000001111 !
1]
0_
0`
0a
0d
0e
0f
1g
0i
1Z
0k
0T
1C
0R
1P
0O
0N
0M
0J
0I
0H
1F
16
04
03
02
0/
0.
0-
1,
0*
1"
0(
#75000
b110110101011000000001111 !
b100110101011000000001111 !
b100010101011000000001111 !
b100010101001000000001111 !
b10101001000000001111 !
b10111001000000001111 !
b10111001000100001111 !
b10111001000100001101 !
b10111001000110001101 !
b10111001000111001101 !
b10111001001111001101 !
b111001001111001101 !
b111001011111001101 !
b111000011111001101 !
b111000011111011101 !
b111000011111011001 !
0?
0\
0]
1_
1a
1b
1c
1d
1e
0g
0h
1W
0Y
0Z
0l
0m
0V
0U
0C
0B
1@
0Q
0P
1N
1M
1L
1K
1J
1H
0F
0E
07
06
14
12
11
10
1/
1.
0,
0+
1%
0#
0"
0'
0&
#80000
b111000011111011000 !
b11000011111011000 !
b11000011111111000 !
b1000011000011111111000 !
b1000011100011111111000 !
b1000011110011111111000 !
b101000011110011111111000 !
b101000001110011111111000 !
b101000001110011101111000 !
b101000001110011100111000 !
b101000001110001100111000 !
b101000001110001100101000 !
b101000001110001100101100 !
0[
1]
0_
1`
0a
0b
0e
1h
1i
0W
0X
1k
1m
1V
1T
0A
0@
1R
1Q
0N
0K
0J
1I
0H
1F
0D
08
16
04
13
02
01
0.
1+
1*
0%
0$
1(
1&
#85000
b101000001110001100100100 !
b101000001110101100100100 !
b101000001110101100100110 !
b101000001110100100100110 !
b101010001110100100100110 !
b101010001110100100100111 !
b101010001110100100000111 !
b101010001010100100000111 !
b1010001010100100000111 !
b1010001010100110000111 !
b1010001010100111000111 !
b1010001010110111000111 !
b1010001010110111010111 !
b1010001010110111010011 !
1[
1\
0]
0^
1_
0`
1a
1b
0d
1e
1f
0i
1Z
0m
0V
1C
0R
1O
1N
0M
1K
1J
0I
1H
0G
0F
1E
1D
18
17
06
05
14
03
12
11
0/
1.
1-
0*
1"
0&
#90000
b1011001010110111010011 !
b11011001010110111010011 !
b11111001010110111010011 !
b11111101010110111010011 !
b10111101010110111010011 !
b10111101010110111011011 !
b10111101010110111011010 !
b10111101110110111011010 !
b110111101110110111011010 !
b110111101110100111011010 !
1?
0[
1^
0e
1i
1X
1Y
0k
1l
1m
1V
1U
0T
1B
1A
1R
0N
1G
0D
08
15
0.
1*
1$
1#
0(
1'
1&
#95000
b110111100110100111011010 !
b110111100110100011011010 !
b110111100111100011011010 !
b110111100111000011011010 !
b110111100111000011011000 !
b110101100111000011011000 !
b110101100111000011111000 !
b110101100111000001111000 !
b110101100111000000111000 !
b110100100111000000111000 !
b110000100111000000111000 !
b110000000111000000111000 !
b111000000111000000111000 !
b11000000111000000111000 !
b11000000111010000111000 !
0?
0\
1`
0a
0b
0c
1e
0f
1g
0j
0X
0Y
0Z
1k
0m
0V
1T
0C
0B
0A
0S
1P
0O
1N
0L
0K
0J
1I
0E
07
13
02
01
00
1.
0-
1,
0)
0$
0#
0"
1(
0&
#100000
b11000000101010000111000 !
b11000010101010000111000 !
b11000010101011000111000 !
b11000010101011000111100 !
b11000011101011000111100 !
b11000011101111000111100 !
b11000011101111000111110 !
b11000011101111000011110 !
b11000011101111010011110 !
b11001011101111010011110 !
b11101011101111010011110 !
b11101111101111010011110 !
b10101111101111010011110 !
b110101111101111010011110 !
1?
1\
1]
0`
1b
1d
1f
0h
1j
1W
1X
1Y
0k
1m
1V
0T
1B
1A
1@
1S
0Q
1O
1M
1K
0I
1F
1E
17
16
03
11
1/
1-
0+
1)
1%
1$
1#
0(
1&
#105000
b110101111101111010001110 !
b100101111101111010001110 !
b100101111101111010000110 !
b100101111101111010000111 !
b100101111100111010000111 !
b100101111100110010000111 !
b100101110100110010000111 !
b100101110100110010000101 !
b100101110100110010100101 !
b100101110100110000100101 !
b100101010100110000100101 !
b101010100110000100101 !
1[
0\
0^
0_
1`
0b
0d
0g
0j
0X
0l
0m
0V
0U
0A
0S
0P
0M
0K
1I
0H
0G
0E
1D
18
07
05
04
13
01
0/
0,
0)
0$
0'
0&
#110000
b101010100110100100101 !
b101010100110101100101 !
b101010100100101100101 !
b101010100100101100001 !
b100010100100101100001 !
b1100010100100101100001 !
b11100010100100101100001 !
b11100010100100101101001 !
b11100010100100101001001 !
b111100010100100101001001 !
0]
1^
0`
1a
1c
0e
0Y
1k
1l
1m
1V
1U
1T
0B
0N
1L
1J
0I
1G
0F
06
15
03
12
10
0.
0#
1(
1'
1&
#115000
b111100000100100101001001 !
b111100000100000101001001 !
b111100000100000101011001 !
b111100000100000101011000 !
b111100000101000101011000 !
b111100000101000101011010 !
b111100100101000101011010 !
b111100100101000001011010 !
b111100100101000000011010 !
b111100100101000000011110 !
b111101100101000000011110 !
b110101100101000000011110 !
b100101100101000000011110 !
b100101100101000000111110 !
b101100101000000111110 !
0[
1\
1]
1_
1`
0a
0c
0f
1g
0W
1X
1Y
0k
0l
0m
0V
0U
0T
1B
1A
0@
1P
0O
0L
0J
1I
1H
1F
1E
0D
08
17
16
14
13
02
00
0-
1,
0%
1$
1#
0(
0'
0&
#120000
b101100001000000111110 !
b101100001001000111110 !
b101100001001010111110 !
b101110001001010111110 !
b101110001101010111110 !
b101110001101010101110 !
b101110001101010101111 !
b101110000101010101111 !
b101110000101010101011 !
b100110000101010101011 !
b10100110000101010101011 !
b10100110000101010001011 !
1[
0]
0_
0`
1b
1d
1f
0g
0i
1W
0Y
1l
1U
0B
1@
0R
0P
1O
1M
1K
0I
0H
0F
1D
18
06
04
03
11
1/
1-
0,
0*
1%
0#
1'
#125000
b10100111000101010001011 !
b10100111000101010000011 !
b10100111000101010000001 !
b10100111000101110000001 !
b10100111000101111000001 !
b110100111000101111000001 !
b110100111000100111000001 !
b110100111000100101000001 !
b110100101000100101000001 !
b110100101000000101000001 !
b110100101000000101010001 !
b110100101001000101010001 !
b100100101001000101010001 !
0\
0^
1_
1a
0b
1c
0d
0f
1g
1j
0W
0l
1m
1V
0U
0@
1S
1P
0O
0M
1L
0K
1J
1H
0G
0E
07
05
14
12
01
10
0/
0-
1,
1)
0%
0'
1&
#130000
b100110101001000101010001 !
b100010101001000101010001 !
b100010101001010101010001 !
b100010001001010101010001 !
b100010001101010101010001 !
b100010001101010101010000 !
b100010001101010101010100 !
b100011001101010101010100 !
b100011000101010101010100 !
b100011000101010101011100 !
b100011000101010100011100 !
b100011000101010110011100 !
b100011000101010110001100 !
0?
0[
1]
1^
0_
0a
1b
1e
1i
0j
0X
1Y
1Z
1C
1B
0A
0S
1R
1N
1K
0J
0H
1G
1F
0D
08
16
15
04
02
11
1.
1*
0)
0$
1#
1"
#135000
b101011000101010110001100 !
b101011000101010110101100 !
b101011000101010010101100 !
b1011000101010010101100 !
b1011000101110010101100 !
b1011000100110010101100 !
b11011000100110010101100 !
b11011000100100010101100 !
b11011100100100010101100 !
b11011100100100010101101 !
b11011101100100010101101 !
b11011101100100010100101 !
b11011101100100011100101 !
b11011101100100001100101 !
b11011101100100001110101 !
1[
0^
1_
1`
1a
0b
0c
0e
1f
0g
1j
1X
1k
1l
0m
0V
1U
1T
1A
1S
0P
1O
0N
0L
0K
1J
1I
1H
0G
1D
18
05
14
13
12
01
00
0.
1-
0,
1)
1$
1(
1'
0&
#140000
b11011101110100001110101 !
b11011101110100001110111 !
b11001101110100001110111 !
b11101101110100001110111 !
b11101101110100001110011 !
b11100101110100001110011 !
b10100101110100001110011 !
b100101110100001110011 !
b100001110100001110011 !
b100001110100001110010 !
b100000110100001110010 !
b100000110100000110010 !
1?
0[
1\
0]
0a
1h
0j
0X
0Y
0Z
0k
0l
0U
0T
0C
0B
0A
0S
1Q
0J
0F
1E
0D
08
17
06
02
1+
0)
0$
0#
0"
0(
0'
#145000
b100000010100000110010 !
b100100000010100000110010 !
b100100000010000000110010 !
b100100000000000000110010 !
b100110000000000000110010 !
b100111000000000000110010 !
b101111000000000000110010 !
b101111000000000000110011 !
b101111001000000000110011 !
b101111001000000001110011 !
1[
1a
0f
0h
0i
1j
1Y
1Z
1k
1m
1V
1T
1C
1B
1S
0R
0Q
0O
1J
1D
18
12
0-
0+
0*
1)
1#
1"
1(
1&
#150000
b101111001000001001110011 !
b101111011000001001110011 !
b101111011000001101110011 !
b101111011001001101110011 !
b101111011001001101100011 !
b101011011001001101100011 !
b111011011001001101100011 !
b110011011001001101100011 !
b110011011001001101100010 !
0?
0[
0_
1c
1d
1g
1W
0k
1l
1U
0T
1@
1P
1M
1L
0H
0D
08
04
10
1/
1,
1%
0(
1'
#155000
b110011011001001101000010 !
b110011011001011101000010 !
b110011011001011101001010 !
b110011011001011111001010 !
b110011111001011111001010 !
b10011111001011111001010 !
b10011110001011111001010 !
b10011110001011110001010 !
b10011100001011110001010 !
b10011100001011010001010 !
b10011100000011010001010 !
b10011100000011010011010 !
b11100000011010011010 !
b11100000011010011011 !
1[
1^
1_
0`
0a
1b
0c
1e
0g
0j
0W
1X
0l
0m
0V
0U
1A
0@
0S
0P
1N
0L
1K
0J
0I
1H
1G
1D
18
15
14
03
02
11
00
1.
0,
0)
0%
1$
0'
0&
#160000
b11100000011010011001 !
b11100100011010011001 !
b11100100111010011001 !
b11100110111010011001 !
b1100110111010011001 !
b100110111010011001 !
b100110110010011001 !
b110110010011001 !
b110110011011001 !
b111110011011001 !
b111110011001001 !
b10000000111110011001001 !
b10000000111110011001000 !
0[
0\
0_
1a
0d
1f
1g
1h
1i
0X
0Y
0Z
1l
1U
0C
0B
0A
1R
1Q
1P
1O
0M
1J
0H
0E
0D
08
07
04
12
0/
1-
1,
1+
1*
0$
0#
0"
1'
#165000
b10000000111110011001100 !
b11000000111110011001100 !
b11000000111110011101100 !
b11000000111100011101100 !
b11000010111100011101100 !
b11000010011100011101100 !
b11010010011100011101100 !
b11011010011100011101100 !
b11011110011100011101100 !
b11011110011100010101100 !
b11011110011100010111100 !
b11011110011100010111101 !
1[
1]
1_
1`
0a
0e
0i
1W
1X
1Y
1Z
1k
1T
1C
1B
1A
1@
0R
0N
0J
1I
1H
1F
1D
18
16
14
13
02
0.
0*
1%
1$
1#
1"
1(
#170000
b11011110011100010110101 !
b111011110011100010110101 !
b111011110011000010110101 !
b111011110011001010110101 !
b111011110010001010110101 !
b101011110010001010110101 !
b100011110010001010110101 !
b100011110010011010110101 !
b100011100010011010110101 !
b100011100110011010110101 !
b100010100110011010110101 !
0^
1d
1e
0f
0g
1i
0W
0Y
0k
0l
1m
1V
0U
0T
0B
0@
1R
0P
0O
1N
1M
0G
05
1/
1.
0-
0,
1*
0%
0#
0(
0'
1&
#175000
b100010100110011110110101 !
b100010100110011110110111 !
b100010100110011110110110 !
b10100110011110110110 !
b1010100110011110110110 !
b1010110110011110110110 !
0[
1\
1c
1W
1k
0m
0V
1T
1@
1L
1E
0D
08
17
10
1%
1(
0&
#180000
b1110110110011110110110 !
b1110110110011110110010 !
b1110110110011110100010 !
b1110110110111110100010 !
b1110110110110110100010 !
b1110110111110110100010 !
b11110110111110110100010 !
b11110110111100110100010 !
b11110110011100110100010 !
b11111110011100110100010 !
b11111110011100010100010 !
b11111110011100010100011 !
b11111100011100010100011 !
1?
1[
0]
0_
0c
0d
0e
1f
1g
0i
0W
1Y
1l
1U
1B
0@
0R
1P
1O
0N
0M
0L
0H
0F
1D
18
06
04
00
0/
0.
1-
1,
0*
0%
1#
1'
#185000
b11111100011100010000011 !
b11101100011100010000011 !
b11101100011100010001011 !
b11101100011101010001011 !
b11101100010101010001011 !
b1101100010101010001011 !
b1100100010101010001011 !
b1100100010101110001011 !
b1100100010101110001010 !
0[
1^
0`
1c
1d
0g
0Y
0Z
0l
0U
0C
0B
0P
1M
1L
0I
1G
0D
08
15
03
10
1/
0,
0#
0"
0'
#190000
b1100100010101100001010 !
b1100101010101100001010 !
b1100101010101101001010 !
b1100101010101101001000 !
b101100101010101101001000 !
b101000101010101101001000 !
b101000101010101101001100 !
b101000111010101101001100 !
b101000111010101101101100 !
b101000111011101101101100 !
b111000111011101101101100 !
b111000111011101101101101 !
0?
1[
0\
1]
1`
1a
0b
1g
1j
1W
1l
1m
1V
1U
1@
1S
1P
0K
1J
1I
1F
0E
1D
18
07
16
13
12
01
1,
1)
1%
1'
1&
#195000
b111000111011101101111101 !
b111000111011001101111101 !
b111010111011001101111101 !
b111011111011001101111101 !
b111011111011001001111101 !
b11011111011001001111101 !
1_
0c
0f
1Y
1Z
0m
0V
1C
1B
0O
0L
1H
14
00
0-
1#
1"
0&
#200000
b11011111001001001111101 !
b11011011001001001111101 !
b10011011001001001111101 !
b10011011101001001111101 !
b10011011101001001110101 !
b10011011101001011110101 !
b10011010101001011110101 !
b10011010101001010110101 !
b10011010101001010110111 !
b10011010101001010110011 !
b10011000101001010110011 !
b10011000100001010110011 !
b10011000100001010110010 !
b10011000100101010110010 !
0[
1\
0]
0^
0a
1b
1f
0g
0h
1i
0j
0W
0X
0k
0T
0A
0@
0S
1R
0Q
0P
1O
1K
0J
0G
0F
1E
0D
08
17
06
05
02
11
1-
0,
0+
1*
0)
0%
0$
0(
#205000
b10011000100100010110010 !
b10111000100100010110010 !
b10111000100100010010010 !
b111000100100010010010 !
b111000100100010000010 !
b111000100100110000010 !
b111000000100110000010 !
b111000000100110001010 !
b111000000100100001010 !
b111010000100100001010 !
b111010000100100001011 !
b111010000000100001011 !
1?
1[
1^
0_
0`
0b
1c
0d
0f
0i
1W
0l
0U
1@
0R
0O
0M
1L
0K
0I
0H
1G
1D
18
15
04
03
01
10
0/
0-
0*
1%
0'
#210000
b101010000000100001011 !
b100101010000000100001011 !
b100101010010000100001011 !
b100101110010000100001011 !
b101101110010000100001011 !
b101101110010000101001011 !
b101101110010001101001011 !
b111101110010001101001011 !
b111101110110001101001011 !
b111101110110001101001010 !
b111101110110101101001010 !
0[
1a
1d
1f
1h
1i
1X
0Z
1k
1l
1m
1V
1U
1T
0C
1A
1R
1Q
1O
1M
1J
0D
08
12
1/
1-
1+
1*
1$
0"
1(
1'
1&
#215000
b111100110110101101001010 !
b111100111110101101001010 !
b111100111111101101001010 !
b111100111111101101011010 !
b111100111111101001011010 !
b111100111111101001010010 !
b111100101111101001010010 !
b111100101101101001010010 !
b110100101101101001010010 !
b110100101101101000010010 !
b110100101101100000010010 !
b110100101001100000010010 !
0^
1_
0a
0c
0d
1g
0h
0i
1j
0W
0Y
0k
0T
0B
0@
1S
0R
0Q
1P
0M
0L
0J
1H
0G
05
14
02
00
0/
1,
0+
0*
1)
0%
0#
0(
#220000
b110100101001110000010010 !
b110100101001110000010110 !
b110100101001110000110110 !
b110100101001110000110111 !
b110101101001110000110111 !
b110101100001110000110111 !
b110101100000110000110111 !
b110101100000110000100111 !
b110101100000110100100111 !
b110101110000110100100111 !
b111101110000110100100111 !
b111101110000110101100111 !
1[
1]
0_
1`
1a
1c
1e
0g
0j
1W
1Y
1k
1T
1B
1@
0S
0P
1N
1L
1J
1I
0H
1F
1D
18
16
04
13
12
10
1.
0,
0)
1%
1#
1(
#225000
b111001110000110101100111 !
b111001110000110111100111 !
b111001010000110111100111 !
b101001010000110111100111 !
b101001010000010111100111 !
b101001010010010111100111 !
b101001010010000111100111 !
b101001010010000111100011 !
b101001010010000111000011 !
b101001010010000111000010 !
b101000010010000111000010 !
b101000010011000111000010 !
b100000010011000111000010 !
0?
0[
0]
0`
1b
0e
0f
1g
1h
0X
0Y
0k
0l
0U
0T
0B
0A
1Q
1P
0O
0N
1K
0I
0F
0D
08
06
03
11
0.
0-
1,
1+
0$
0#
0(
0'
#230000
b100000010011001111000010 !
b100000010111001111000010 !
b100000011111001111000010 !
b100000011111001111010010 !
b100000111111001111010010 !
b100000111101001111010010 !
b100000111101001111010011 !
1[
1_
1d
0h
1i
1j
1X
1A
1S
1R
0Q
1M
1H
1D
18
14
1/
0+
1*
1)
1$
#235000
b100000111101001111010001 !
b100000111101001111011001 !
b100000111101001011011001 !
b100000101101001011011001 !
b100100101101001011011001 !
b100100101101001001011001 !
b110100101101001001011001 !
b110100101101101001011001 !
b110100101101111001011001 !
b110100101101111001011101 !
b110100101101111001111101 !
b110101101101111001111101 !
b110101101101110001111101 !
b110101100101110001111101 !
b110101000101110001111101 !
b110101000111110001111101 !
1?
0\
1]
1^
1`
0b
0c
0d
1e
1f
1h
0j
0W
0X
1Y
1l
1U
1B
0A
0@
0S
1Q
1O
1N
0M
0L
0K
1I
1G
1F
0E
07
16
15
13
01
00
0/
1.
1-
1+
0)
0%
0$
1#
1'
#240000
b110101000111110000111101 !
b110101000110110000111101 !
b110101000010110000111101 !
b110101000010110000101101 !
b110101000010110000100101 !
b110101010010110000100101 !
b110001010010110000100101 !
b110001010010110000000101 !
b110000010010110000000101 !
b110000010010111000000101 !
b110000010000111000000101 !
0?
0^
0_
0`
0a
1d
0g
0h
0i
1W
0Y
0B
1@
0R
0Q
0P
1M
0J
0I
0H
0G
05
04
03
02
1/
0,
0+
0*
1%
0#
#245000
b10000010000111000000101 !
b11000010000111000000101 !
b11000010000111000000100 !
b11000010000111000000110 !
b11000010000111100000110 !
b1000010000111100000110 !
b1000010000101100000110 !
b1000010000101100000010 !
b1000010001101100000010 !
b1000010101101100000010 !
b1000000101101100000010 !
b1000000101100100000010 !
0[
1\
0]
1c
0d
0e
1g
1i
0W
1k
0l
0m
0V
0U
1T
0@
1R
1P
0N
0M
1L
0F
1E
0D
08
17
06
10
0/
0.
1,
1*
0%
1(
0'
0&
#250000
b1000001101100100000010 !
b1100001101100100000010 !
b1100001101100100100010 !
b1101001101100100100010 !
b1101001111100100100010 !
b101001111100100100010 !
b101001111100100100011 !
b101001111100100100001 !
b101001111100100100101 !
b101001110100100100101 !
b101011110100100100101 !
1?
1[
0\
1]
1`
0g
1h
1j
1W
1Y
0k
0T
1B
1@
1S
1Q
0P
1I
1F
0E
1D
18
07
16
13
0,
1+
1)
1%
1#
0(
#255000
b101011110000100100101 !
b100101011110000100100101 !
b100101011110000000100101 !
b110101011110000000100101 !
b110101011110010000100101 !
b110101010110010000100101 !
b111101010110010000100101 !
b111101010110010000100100 !
b111101010111010000100100 !
b111101000111010000100100 !
0[
0c
1e
0f
1g
0j
0W
1k
1l
1m
1V
1U
1T
0@
0S
1P
0O
1N
0L
0D
08
00
1.
0-
1,
0)
0%
1(
1'
1&
#260000
b111101100111010000100100 !
b111101100111010001100100 !
b111101100111010001100110 !
b111101100111010001100010 !
b111101100111010101100010 !
b101101100111010101100010 !
b101101100111000101100010 !
b101101101111000101100010 !
b101101111111000101100010 !
1\
0]
1a
1c
0e
1j
1W
1X
0l
0U
1A
1@
1S
0N
1L
1J
0F
1E
17
06
12
10
0.
1)
1%
1$
0'
#265000
b101111111111000101100010 !
b101111111111000111100010 !
b101111111111000111110010 !
b101111111011000111110010 !
b101111111011001111110010 !
b101110111011001111110010 !
b101110111011001111110000 !
b101110111011001111110100 !
b101110111011001011110100 !
b111110111011001011110100 !
0\
1]
1_
1b
0c
1d
0i
0Y
1Z
1l
1U
1C
0B
0R
1M
0L
1K
1H
1F
0E
07
16
14
11
00
1/
0*
0#
1"
1'
