simulation/qsim/nibble.msim.vcd
$comment
	File created using the following command:
		vcd file nibble.msim.vcd -direction
$end
$date
	Wed Nov 16 20:42:12 2016
$end
$version
	ModelSim Version 10.4d
$end
$timescale
	1ps
$end

$scope module reg_inst_vlg_vec_tst $end
$var reg 24 ! Data_in [23:0] $end
$var reg 1 " clock $end
$var reg 1 # reset $end
$var wire 1 $ Data_out [23] $end
$var wire 1 % Data_out [22] $end
$var wire 1 & Data_out [21] $end
$var wire 1 ' Data_out [20] $end
$var wire 1 ( Data_out [19] $end
$var wire 1 ) Data_out [18] $end
$var wire 1 * Data_out [17] $end
$var wire 1 + Data_out [16] $end
$var wire 1 , Data_out [15] $end
$var wire 1 - Data_out [14] $end
$var wire 1 . Data_out [13] $end
$var wire 1 / Data_out [12] $end
$var wire 1 0 Data_out [11] $end
$var wire 1 1 Data_out [10] $end
$var wire 1 2 Data_out [9] $end
$var wire 1 3 Data_out [8] $end
$var wire 1 4 Data_out [7] $end
$var wire 1 5 Data_out [6] $end
$var wire 1 6 Data_out [5] $end
$var wire 1 7 Data_out [4] $end
$var wire 1 8 Data_out [3] $end
$var wire 1 9 Data_out [2] $end
$var wire 1 : Data_out [1] $end
$var wire 1 ; Data_out [0] $end

$scope module i1 $end
$var wire 1 < gnd $end
$var wire 1 = vcc $end
$var wire 1 > unknown $end
$var tri1 1 ? devclrn $end
$var tri1 1 @ devpor $end
$var tri1 1 A devoe $end
$var wire 1 B Data_out[0]~output_o $end
$var wire 1 C Data_out[1]~output_o $end
$var wire 1 D Data_out[2]~output_o $end
$var wire 1 E Data_out[3]~output_o $end
$var wire 1 F Data_out[4]~output_o $end
$var wire 1 G Data_out[5]~output_o $end
$var wire 1 H Data_out[6]~output_o $end
$var wire 1 I Data_out[7]~output_o $end
$var wire 1 J Data_out[8]~output_o $end
$var wire 1 K Data_out[9]~output_o $end
$var wire 1 L Data_out[10]~output_o $end
$var wire 1 M Data_out[11]~output_o $end
$var wire 1 N Data_out[12]~output_o $end
$var wire 1 O Data_out[13]~output_o $end
$var wire 1 P Data_out[14]~output_o $end
$var wire 1 Q Data_out[15]~output_o $end
$var wire 1 R Data_out[16]~output_o $end
$var wire 1 S Data_out[17]~output_o $end
$var wire 1 T Data_out[18]~output_o $end
$var wire 1 U Data_out[19]~output_o $end
$var wire 1 V Data_out[20]~output_o $end
$var wire 1 W Data_out[21]~output_o $end
$var wire 1 X Data_out[22]~output_o $end
$var wire 1 Y Data_out[23]~output_o $end
$var wire 1 Z clock~input_o $end
$var wire 1 [ Data_in[0]~input_o $end
$var wire 1 \ reset~input_o $end
$var wire 1 ] Data_out[0]~reg0_q $end
$var wire 1 ^ Data_in[1]~input_o $end
$var wire 1 _ Data_out[1]~reg0_q $end
$var wire 1 ` Data_in[2]~input_o $end
$var wire 1 a Data_out[2]~reg0_q $end
$var wire 1 b Data_in[3]~input_o $end
$var wire 1 c Data_out[3]~reg0_q $end
$var wire 1 d Data_in[4]~input_o $end
$var wire 1 e Data_out[4]~reg0_q $end
$var wire 1 f Data_in[5]~input_o $end
$var wire 1 g Data_out[5]~reg0_q $end
$var wire 1 h Data_in[6]~input_o $end
$var wire 1 i Data_out[6]~reg0_q $end
$var wire 1 j Data_in[7]~input_o $end
$var wire 1 k Data_out[7]~reg0_q $end
$var wire 1 l Data_in[8]~input_o $end
$var wire 1 m Data_out[8]~reg0_q $end
$var wire 1 n Data_in[9]~input_o $end
$var wire 1 o Data_out[9]~reg0_q $end
$var wire 1 p Data_in[10]~input_o $end
$var wire 1 q Data_out[10]~reg0_q $end
$var wire 1 r Data_in[11]~input_o $end
$var wire 1 s Data_out[11]~reg0_q $end
$var wire 1 t Data_in[12]~input_o $end
$var wire 1 u Data_out[12]~reg0_q $end
$var wire 1 v Data_in[13]~input_o $end
$var wire 1 w Data_out[13]~reg0_q $end
$var wire 1 x Data_in[14]~input_o $end
$var wire 1 y Data_out[14]~reg0_q $end
$var wire 1 z Data_in[15]~input_o $end
$var wire 1 { Data_out[15]~reg0_q $end
$var wire 1 | Data_in[16]~input_o $end
$var wire 1 } Data_out[16]~reg0_q $end
$var wire 1 ~ Data_in[17]~input_o $end
$var wire 1 !! Data_out[17]~reg0_q $end
$var wire 1 "! Data_in[18]~input_o $end
$var wire 1 #! Data_out[18]~reg0_q $end
$var wire 1 $! Data_in[19]~input_o $end
$var wire 1 %! Data_out[19]~reg0_q $end
$var wire 1 &! Data_in[20]~input_o $end
$var wire 1 '! Data_out[20]~reg0_q $end
$var wire 1 (! Data_in[21]~input_o $end
$var wire 1 )! Data_out[21]~reg0_q $end
$var wire 1 *! Data_in[22]~input_o $end
$var wire 1 +! Data_out[22]~reg0_q $end
$var wire 1 ,! Data_in[23]~input_o $end
$var wire 1 -! Data_out[23]~reg0_q $end
$upscope $end
$upscope $end
$enddefinitions $end
#0
$dumpvars
b100111011100100000100100 !
0"
1#
0;
0:
09
08
07
06
05
04
03
02
01
00
0/
0.
0-
0,
0+
0*
0)
0(
0'
0&
0%
0$
0<
1=
x>
1?
1@
1A
0B
0C
0D
0E
0F
0G
0H
0I
0J
0K
0L
0M
0N
0O
0P
0Q
0R
0S
0T
0U
0V
0W
0X
0Y
0Z
0[
1\
0]
0^
0_
1`
0a
0b
0c
0d
0e
1f
0g
0h
0i
0j
0k
0l
0m
0n
0o
0p
0q
1r
0s
0t
0u
0v
0w
1x
0y
1z
0{
1|
0}
0~
0!!
1"!
0#!
1$!
0%!
1&!
0'!
0(!
0)!
0*!
0+!
1,!
0-!
$end
#5000
b111011100100000100100 !
b11011100100000100100 !
b10011100100000100100 !
b10001100100000100100 !
b10000100100000100100 !
b10000110100000100100 !
b10000111100000100100 !
b10000111110000100100 !
b10000111110010100100 !
b10000111110010101100 !
b10000111110010101000 !
b10000111110010101001 !
1"
1[
0`
1b
1j
1p
1t
1v
0z
0|
0"!
0&!
0,!
1Z
#10000
b1010000111110010101001 !
b1000000111110010101001 !
b1000000011110010101001 !
b1000000011111010101001 !
b1000000011111110101001 !
b1000000011111111101001 !
b1000000011111111111001 !
0#
b1100000011111111111001 !
b1101000011111111111001 !
b1101000010111111111001 !
b1101000010111101111001 !
b1101000010111101111101 !
b1101000010111101111100 !
0"
0\
0[
1`
1d
1h
0j
1l
1n
0t
0x
1"!
0$!
1&!
1(!
0Z
#15000
b1101100010111101111100 !
b1101110010111101111100 !
b1101110000111101111100 !
b1101110000111101110100 !
b1111110000111101110100 !
b1111110000110101110100 !
b1111110000110001110100 !
b1011110000110001110100 !
b1010110000110001110100 !
b1010110001110001110100 !
b1010110001110011110100 !
1"
0b
1j
0l
0n
1t
0v
1|
1~
0"!
1$!
0&!
1Z
1)!
1%!
1!!
1}
1u
1s
1q
1k
1i
1g
1e
1a
1D
1F
1G
1H
1I
1L
1M
1N
1R
1S
1U
1W
1&
1(
1*
1+
1/
10
11
14
15
16
17
19
#20000
b1010110001010011110100 !
b1010110001010011110110 !
b1010111001010011110110 !
b1010111001000011110110 !
b1010111101000011110110 !
b1010111101000010110110 !
b1010111101000010110010 !
b1010111101000010110011 !
b1010101101000010110011 !
b1010101101000010111011 !
b1110101101000010111011 !
b1111101101000010111011 !
b1111101100000010111011 !
0"
1[
1^
0`
1b
0h
0p
0r
0t
1x
1z
0|
1"!
1&!
0Z
#25000
b101111101100000010111011 !
b101111101110000010111011 !
b101101101110000010111011 !
b101101101110000000111011 !
b101101101010000000111011 !
b101101101010000001111011 !
b101101101010000001111010 !
b101101101010000001110010 !
b101001101010000001110010 !
b101000101010000001110010 !
1"
0[
0b
1h
0j
1v
0x
0"!
0$!
0&!
1,!
1Z
1-!
0%!
0}
1{
1w
0u
0s
0q
0k
0a
1_
1C
0D
0I
0L
0M
0N
1O
1Q
0R
0U
1Y
1$
0(
0+
1,
1.
0/
00
01
04
09
1:
#30000
b111000101010000001110010 !
b110000101010000001110010 !
b110000101010000001100010 !
b110000101010001001100010 !
b110000101010011001100010 !
b110000111010011001100010 !
b110000111000011001100010 !
b110010111000011001100010 !
b110011111000011001100010 !
0"
0d
1n
1p
0v
1|
1"!
1$!
0(!
1*!
0Z
#35000
b110011111000011001000010 !
b110011011000011001000010 !
b110011011000011101000010 !
b110011011000111101000010 !
b110011011000111101000000 !
b110011011000111101000100 !
b110011011000111111000100 !
b110011011000111111001100 !
b110111011000111111001100 !
b100111011000111111001100 !
b101111011000111111001100 !
b101111011000111111011100 !
b101111011000110111011100 !
b101111001000110111011100 !
b101101001000110111011100 !
b101100001000110111011100 !
1"
0^
1`
1b
1d
0f
1j
1l
0n
1r
0|
0~
0"!
0$!
1&!
1(!
0*!
1Z
1'!
0!!
0w
1s
1q
1m
1k
0g
1c
1a
0_
0C
1D
1E
0G
1I
1J
1L
1M
0O
0S
1V
1'
0*
0.
10
11
13
14
06
18
19
0:
#40000
b101100000000110111011100 !
b101100000001110111011100 !
b101100000001110111011101 !
b101100000011110111011101 !
b101100100011110111011101 !
b101100100011010111011101 !
b101100100011010111011111 !
b101100100011010111011011 !
b101100100011010101011011 !
b101100100011010101010011 !
b111100100011010101010011 !
b110100100011010101010011 !
b110100110011010101010011 !
0"
1[
1^
0`
0b
0j
0r
1t
1v
0z
1|
1~
0(!
1*!
0Z
#45000
b10100110011010101010011 !
b10100110011010100010011 !
b10100110011010100110011 !
b10100110011010000110011 !
b10000110011010000110011 !
b10000110011010000100011 !
b10000110011011000100011 !
b10001110011011000100011 !
b10001110010011000100011 !
b10001110010011000100010 !
b10001010010011000100010 !
b10001010010011000100000 !
b10001010010011000100100 !
b10001010010011010100100 !
1"
0[
0^
1`
0d
1f
0h
1j
0l
1n
0t
0~
1"!
0&!
0,!
1Z
0-!
1+!
0)!
0'!
1#!
1}
0{
1w
0s
1o
0m
0i
1g
0e
0c
0E
0F
1G
0H
0J
1K
0M
1O
0Q
1R
1T
0V
0W
1X
0Y
0$
1%
0&
0'
1)
1+
0,
1.
00
12
03
05
16
07
08
#50000
b10001010110011010100100 !
b10001010100011010100100 !
b10001010100011010101100 !
b1010100011010101100 !
b1001010100011010101100 !
b1001000100011010101100 !
b101001000100011010101100 !
b101101000100011010101100 !
b101101000100010010101100 !
b101101000101010010101100 !
b101101000101010010101110 !
b101101000101010000101110 !
0"
1^
1b
0j
0n
1t
0v
1x
0|
1&!
1(!
0*!
1,!
0Z
#55000
b101111000101010000101110 !
b101111001101010000101110 !
b101111001101010000001110 !
b101111001101010100001110 !
b101111001101010100011110 !
b101110001101010100011110 !
b101110001001010100011110 !
b101110001011010100011110 !
b101110001011010100010110 !
b101010001011010100010110 !
b101010001010010100010110 !
b101010001010010110010110 !
1"
0b
1d
0f
1j
1l
0t
1v
0x
1z
0"!
1$!
0&!
1Z
1-!
0+!
1)!
1%!
0#!
0}
1{
0o
1m
0g
1e
1_
1C
1F
0G
1J
0K
1Q
0R
0T
1U
1W
0X
1Y
1$
0%
1&
1(
0)
0+
1,
02
13
06
17
1:
#60000
b101010001010110110010110 !
b100010001010110110010110 !
b100010001010111110010110 !
b100010001010111110110110 !
b100010001010111010110110 !
b100010001010111010100110 !
b100011001010111010100110 !
b100011001000111010100110 !
b100011001000111000100110 !
0"
0d
1f
0j
0l
1n
1r
0v
1"!
0(!
0Z
#65000
b100011001000101000100110 !
b100011001000101001100110 !
b100011001000101001100111 !
b110011001000101001100111 !
b10011001000101001100111 !
b10011001000101001100101 !
b10001001000101001100101 !
b10001001100101001100101 !
b10101001100101001100101 !
b10101001100001001100101 !
b10101001100001101100101 !
b10101001100001101110101 !
1"
1[
0^
1d
1h
1l
0p
0r
1x
0$!
1&!
1*!
0,!
1Z
0-!
1+!
0)!
1'!
0%!
1#!
1y
0w
0q
1o
0k
1i
1g
0_
1]
1B
0C
1G
1H
0I
1K
0L
0O
1P
1T
0U
1V
0W
1X
0Y
0$
1%
0&
1'
0(
1)
1-
0.
01
12
04
15
16
0:
1;
#70000
b10101101100001101110101 !
b10101101100001101110001 !
b10101111100001101110001 !
b10101111101001101110001 !
b11101111101001101110001 !
b11101111101001101110000 !
b1101111101001101110000 !
b101101111101001101110000 !
b101101111101001101110010 !
b101111111101001101110010 !
b101111111001001101110010 !
b101111111001001001110010 !
b101111111001001001100010 !
0"
0[
1^
0`
0d
0l
1t
0x
1|
1~
1$!
1(!
0*!
1,!
0Z
#75000
b101111110001001001100010 !
b101111110001000001100010 !
b101110110001000001100010 !
b101110110011000001100010 !
b101110110011000001100110 !
b101110110010000001100110 !
b1110110010000001100110 !
b1110110110000001100110 !
b1110110110000101100110 !
1"
1`
1l
0n
0t
1v
1x
0z
0"!
0,!
1Z
0+!
1)!
1%!
0#!
1!!
1}
0{
1w
0o
0e
1_
0]
0B
1C
0F
0K
1O
0Q
1R
1S
0T
1U
1W
0X
0%
1&
1(
0)
1*
1+
0,
1.
02
07
1:
0;
#80000
b1110110110000101101110 !
b1110110110000111101110 !
b1110110110000110101110 !
b1110110110100110101110 !
b1110010110100110101110 !
b1110000110100110101110 !
b110000110100110101110 !
b110000110100110101111 !
b110001110100110101111 !
b110001100100110101111 !
b110001100100110101011 !
b100110001100100110101011 !
b100110001000100110101011 !
0"
1[
0`
1b
0h
1j
1r
0v
0x
1z
0|
0~
0(!
1,!
0Z
#85000
b100010001000100110101011 !
b100010001000100100101011 !
b100010001000100101101011 !
b100010001000000101101011 !
b100010101000000101101011 !
b100010111000000101101011 !
b100010110000000101101011 !
b100010110100000101101011 !
1"
1h
0j
0r
1x
0z
1|
1~
0&!
1Z
1-!
0)!
0'!
0w
1c
0a
1]
1B
0D
1E
0O
0V
0W
1Y
1$
0&
0'
0.
18
09
1;
#90000
b100010110100000101001011 !
b100010110100010101001011 !
b100000110100010101001011 !
b100000110100010101000011 !
b100000110100010101000111 !
b100000110100110101000111 !
b100000100100110101000111 !
b100000101100110101000111 !
b100000101000110101000111 !
0"
1`
0b
0f
1p
1r
0x
1z
0|
0$!
0Z
#95000
b110000101000110101000111 !
b110000101000110101000101 !
b110000101000110001000101 !
b110000101000110000000101 !
b110000101000110000100101 !
b110000101000100000100101 !
b110010101000100000100101 !
b110010101000100000100001 !
b110010101000000000100001 !
b110010100000000000100001 !
1"
0^
0`
1f
0h
0l
0p
0r
0z
1$!
1*!
1Z
1+!
0}
0y
0m
0i
0c
0_
0C
0E
0H
0J
0P
0R
1X
1%
0+
0-
03
05
08
0:
#100000
b110010100000001000100001 !
b111010100000001000100001 !
b111110100000001000100001 !
b111110100000001010100001 !
b111110000000001010100001 !
b111110000000001010101001 !
b111110010000001010101001 !
b111110010100001010101001 !
b111110010100001110101001 !
b111110010100001111101001 !
b111110010100001111001001 !
b111100010100001111001001 !
b111100010100101111001001 !
0"
1b
0f
1h
1j
1l
1n
1r
1x
1|
0~
0$!
1&!
1(!
0Z
#105000
b111101010100101111001001 !
b11101010100101111001001 !
b1101010100101111001001 !
b1101010100101111001011 !
b1101010100111111001011 !
b1101011100111111001011 !
b1001011100111111001011 !
b1001011100111111000011 !
b1001001100111111000011 !
b1001001100111011000011 !
b1001001100111010000011 !
b1001001100111010100011 !
1"
1^
0b
1f
0h
0l
1p
1z
0|
1"!
0&!
0*!
0,!
1Z
0-!
0+!
1)!
0%!
1#!
0!!
1{
1y
1s
1q
1o
1k
1_
1C
1I
1K
1L
1M
1P
1Q
0S
1T
0U
1W
0X
0Y
0$
0%
1&
0(
1)
0*
1,
1-
10
11
12
14
1:
#110000
b1001001101111010100011 !
b1001001101111010100010 !
b1001101111010100010 !
b1001101111000100010 !
b1001001111000100010 !
b1001001011000100010 !
b1001011000100010 !
b100000001001011000100010 !
b100000001001011000100000 !
b100000000001011000100000 !
b100000000001011000101000 !
b100000000001011000001000 !
0"
0[
0^
1b
0f
0j
0r
1t
0x
0z
0"!
0(!
1,!
0Z
#115000
b100000000001011000011000 !
b100000000001011000011100 !
b100000000001010000011100 !
b110000000001010000011100 !
b110000000001000000011100 !
b110100000001000000011100 !
b110100010001000000011100 !
b110100010001000100011100 !
b110100010000000100011100 !
b110101010000000100011100 !
b10101010000000100011100 !
b10101010000000100111100 !
1"
1`
1d
1f
1l
0n
0p
0t
1|
1"!
1&!
1*!
0,!
1Z
1+!
0)!
1'!
1}
0{
0y
0s
0q
0o
1m
0k
1e
1c
1a
0_
0]
0B
0C
1D
1E
1F
0I
1J
0K
0L
0M
0P
0Q
1R
1V
0W
1X
1%
0&
1'
1+
0,
0-
00
01
02
13
04
17
18
19
0:
0;
#120000
b10101010010000100111100 !
b10101010010000101111100 !
b11101010010000101111100 !
b11101010010000111111100 !
b11101010010000111111110 !
b11101011010000111111110 !
b11101011010000111101110 !
b11101011010000111101010 !
b11101011010001111101010 !
b1101011010001111101010 !
b1101011010011111101010 !
b1101001010011111101010 !
b1101001010011011101010 !
b1101001011011011101010 !
b1100001011011011101010 !
0"
1^
0`
0d
1h
1j
0l
1n
1p
1t
1v
1z
0|
0"!
1(!
0*!
0Z
#125000
b1110001011011011101010 !
b1110001111011011101010 !
b1110001111011011100010 !
b1010001111011011100010 !
b101010001111011011100010 !
b101010001111011011000010 !
b101010001111011001000010 !
b101010000111011001000010 !
b101010000111011001010010 !
b101010000111011001010110 !
b101010000111010001010110 !
b111010000111010001010110 !
b111010000111000001010110 !
b111010010111000001010110 !
1"
1`
0b
1d
0f
0j
0n
0p
1x
0z
1|
1$!
0&!
1*!
1,!
1Z
1-!
1)!
0'!
1%!
0#!
1y
1w
1u
0m
1i
0g
0c
1_
1C
0E
0G
1H
0J
1N
1O
1P
0T
1U
0V
1W
1Y
1$
1&
0'
1(
0)
1-
1.
1/
03
15
06
08
1:
#130000
b111010110111000001010110 !
b111010110111100001010110 !
b111010110101100001010110 !
b111000110101100001010110 !
b111000110001100001010110 !
b111100110001100001010110 !
b11100110001100001010110 !
b11100110001100001110110 !
b11100110001100001100110 !
b11100110001100001100010 !
b11100110001101001100010 !
b11100100001101001100010 !
0"
0`
0d
1f
1n
1r
0v
0x
0|
1~
0$!
1&!
0,!
0Z
#135000
b11100100001101001100000 !
b11100100001101101100000 !
b11100100000101101100000 !
b11100101000101101100000 !
b11100101000111101100000 !
b11100001000111101100000 !
b11100001000011101100000 !
b11100001010011101100000 !
b11110001010011101100000 !
b11010001010011101100000 !
b111010001010011101100000 !
b111010001010011101110000 !
b111010001010011101110100 !
b111010001010010101110100 !
b111010011010010101110100 !
1"
0^
1`
1d
1l
0n
1p
0r
0t
1v
1z
1|
0~
1$!
0&!
1,!
1Z
1{
0y
0u
1q
1m
1g
0_
0C
1G
1J
1L
0N
0P
1Q
1,
0-
0/
11
13
16
0:
#140000
b111010011010010101110101 !
b111010011010010100110101 !
b111010011010010100111101 !
b111010011010010110111101 !
b111010011110010110111101 !
b111010011110010010111101 !
b111010010110010010111101 !
b111010010110000010111101 !
b111010010110100010111101 !
b111010010110101010111101 !
b111010000110101010111101 !
0"
1[
1b
0h
1j
0l
1n
0p
1r
1x
0z
0|
0Z
#145000
b111011000110101010111101 !
b101011000110101010111101 !
b101011000110101010111111 !
b101011000111101010111111 !
b101011000101101010111111 !
b1011000101101010111111 !
b1011000101101010101111 !
b1011000101101010101110 !
b1011000101101011101110 !
b1011000101101011100110 !
b1011000001101011100110 !
b1011000001101111100110 !
b1011001001101111100110 !
b1011001001100111100110 !
1"
0[
1^
0b
0d
1h
1l
0n
1t
0v
0x
1z
1"!
0*!
0,!
1Z
0-!
0+!
1#!
0}
0w
1u
1s
0q
1k
0e
1_
1C
0F
1I
0L
1M
1N
0O
0R
1T
0X
0Y
0$
0%
1)
0+
0.
1/
10
01
14
07
1:
#150000
b11001001100111100110 !
b11001001100111000110 !
b1001001100111000110 !
b1001001100111000010 !
b1001001100101000010 !
b1011001100101000010 !
b1011001100101000000 !
b1011000100101000000 !
b100001011000100101000000 !
b100001011000100101000001 !
b100001011000100101001001 !
b100001011100100101001001 !
b100001011100100001001001 !
b100001010100100001001001 !
b100001010100101001001001 !
0"
1[
0^
0`
1b
0f
0j
0l
1n
0t
1x
0z
1|
0$!
0(!
1,!
0Z
#155000
b100101010100101001001001 !
b100101010100111001001001 !
b100100010100111001001001 !
b110100010100111001001001 !
b110100010100111000001001 !
b110100010100111010001001 !
b110100010100111010001011 !
b110100010101111010001011 !
b110100010101111010001010 !
b110100010101111010000010 !
b110100010101110010000010 !
1"
0[
1^
0b
0h
1j
0n
1p
1t
0"!
1&!
1*!
1Z
1-!
1+!
0)!
1'!
0%!
0#!
1}
0{
1y
1q
0m
0i
0g
0a
0D
0G
0H
0J
1L
1P
0Q
1R
0T
0U
1V
0W
1X
1Y
1$
1%
0&
1'
0(
0)
1+
0,
1-
11
03
05
06
09
#160000
b110100010101010010000010 !
b110100010111010010000010 !
b110100010111010010010010 !
b110100010111010010110010 !
b110100010011010010110010 !
b110100011011010010110010 !
b110100011011000010110010 !
b100100011011000010110010 !
b100100011011000010110000 !
b100100011010000010110000 !
b100100011010000010110001 !
b100100011010001010110001 !
0"
1[
0^
1d
1f
1n
0p
0r
0t
1v
0x
1z
0*!
0Z
#165000
b101100011010001010110001 !
b101110011010001010110001 !
b101110011010001010110101 !
b101110001010001010110101 !
b1110001010001010110101 !
b1110001010001110110101 !
b1110001010001100110101 !
b1110001010101100110101 !
b1110001000101100110101 !
b1110001000101100100101 !
b1110001000101100000101 !
b1110001100101100000101 !
b1110000100101100000101 !
b11110000100101100000101 !
b11110000100101100000111 !
b11110000100101100000110 !
1"
0[
1^
1`
0d
0f
0j
1l
1r
0v
1x
0z
0|
1$!
1(!
1*!
0,!
1Z
0-!
1)!
1%!
0}
0u
0q
1o
1m
0k
1a
1D
0I
1J
1K
0L
0N
0R
1U
1W
0Y
0$
1&
1(
0+
0/
01
12
13
04
19
#170000
b11110100100101100000110 !
b11111100100101100000110 !
b11111100100101101000110 !
b11111100100111101000110 !
b11111100101111101000110 !
b11111100101110101000110 !
b10111100101110101000110 !
b10111100101110101000010 !
b110111100101110101000010 !
b110111100101110001000010 !
b110111100101110011000010 !
b110111100101010011000010 !
b110111100101010011010010 !
b110111100001010011010010 !
b110111101001010011010010 !
b100111101001010011010010 !
b100111101001010011010011 !
0"
1[
0`
1d
1h
1j
0l
0n
1p
0r
1t
0x
1z
1~
1"!
0(!
0*!
1,!
0Z
#175000
b100011101001010011010011 !
b100011101001010011011011 !
b100011111001010011011011 !
b100011111011010011011011 !
b100010111011010011011011 !
b100010111011010010011011 !
b100010111011000010011011 !
b100010111011001010011011 !
b101010111011001010011011 !
b1010111011001010011011 !
b1010111011001110011011 !
b1010111011001100011011 !
b1010111111001100011011 !
b1010110111001100011011 !
1"
1b
0h
0j
1l
1n
0p
1v
1x
0z
1|
0"!
0&!
1(!
0,!
1Z
0+!
0'!
1!!
1}
1w
1u
0s
1e
1c
0a
1]
1B
0D
1E
1F
0M
1N
1O
1R
1S
0V
0X
0%
0'
1*
1+
1.
1/
00
17
18
09
1;
#180000
b1000110111001100011011 !
b1000110111001100111011 !
b1000110111001100111001 !
b1000010111001100111001 !
b1000010111001100101001 !
b11000010111001100101001 !
b11000010111001100101000 !
b11100010111001100101000 !
b11100010111001100100000 !
b11101010111001100100000 !
b11101010111001101100000 !
b11101010111011101100000 !
b11101010111010101100000 !
b10101010111010101100000 !
0"
0[
0^
0b
0d
1f
1h
0n
1p
0~
1"!
0$!
1&!
0(!
1*!
0Z
#185000
b10101010111110101100000 !
b10101000111110101100000 !
b10101000111110001100000 !
b10101000011110001100000 !
b10111000011110001100000 !
b10111000011110001000000 !
b10111100011110001000000 !
b111100011110001000000 !
b11100011110001000000 !
b10100011110001000000 !
b10100011110000000000 !
b10100011100000000000 !
b10100011101000000000 !
b1010100011101000000000 !
1"
0f
0h
0l
1n
0p
1r
0x
0|
1~
0"!
1$!
0&!
1(!
0*!
1Z
0}
0y
1s
0m
0e
0c
0_
0]
0B
0C
0E
0F
0J
1M
0P
0R
0+
0-
10
03
07
08
0:
0;
#190000
b1010100001101000000000 !
b1010100001101010000000 !
b1010101001101010000000 !
b1010101001101010010000 !
b1010111001101010010000 !
b1010111001101110010000 !
b1010111101101110010000 !
b1010111101101110110000 !
b1110111101101110110000 !
b1110111101101111110000 !
0"
1d
1f
1h
1j
1l
0v
1x
1z
1|
1&!
0Z
#195000
b1110111100101111110000 !
b1110111100001111110000 !
b1100111100001111110000 !
b11100111100001111110000 !
b11100111100000111110000 !
b11100111110000111110000 !
b11100110110000111110000 !
b11100100110000111110000 !
b11100100110000011110000 !
b11100100110000011010000 !
b11000100110000011010000 !
b11000100110000010010000 !
1"
0f
0h
0l
0n
0r
0t
1v
0z
0|
0$!
0&!
1*!
1Z
1+!
0%!
1y
0u
0s
0o
1k
1e
1F
1I
0K
0M
0N
1P
0U
1X
1%
0(
1-
0/
00
02
14
17
#200000
b11000100110000010010010 !
b11000100110000010011010 !
b11001100110000010011010 !
b11001100110010010011010 !
b10001100110010010011010 !
b10001100110010000011010 !
b10011100110010000011010 !
b10011100110011000011010 !
b10011100100011000011010 !
b10011101100011000011010 !
b10011101100011100011010 !
b10011101100011100111010 !
b10111101100011100111010 !
b10111101100011101111010 !
0"
1^
1b
1f
1h
0j
1l
1n
1p
0v
1z
1"!
1$!
1&!
0(!
0Z
#205000
b10111101100011101111110 !
b10111101100011101111111 !
b10111101100011101101111 !
b10111101000011101101111 !
b10111101001011101101111 !
b10111101001011101101101 !
b10110101001011101101101 !
b10100101001011101101101 !
b10100101001010101101101 !
b10100101011010101101101 !
b10100100011010101101101 !
b10100100011010001101101 !
b10100100011010001001101 !
1"
1[
0^
1`
0d
0f
0l
0n
1t
1v
0x
0z
0"!
0$!
1Z
0)!
1'!
0y
1u
1q
0k
1i
0e
1c
1a
1]
1B
1D
1E
0F
1H
0I
1L
1N
0P
1V
0W
0&
1'
0-
1/
11
04
15
07
18
19
1;
#210000
b110100100011010001001101 !
b110100100011110001001101 !
b110100100011110001000101 !
b110100100011100001000101 !
b110000100011100001000101 !
b110000100011100000000101 !
b110000100011101000000101 !
b110000100011101000100101 !
0"
0b
1f
0h
1n
0p
1r
0&!
1,!
0Z
#215000
b110000000011101000100101 !
b100000000011101000100101 !
b100000000010101000100101 !
b100000000010101000100111 !
b100000000000101000100111 !
b100000001000101000100111 !
b100000001000101000101111 !
b100000001000111000101111 !
b100000001000111001101111 !
b100000001000110001101111 !
b100000001000110001001111 !
1"
1^
1b
0f
1h
0n
1p
0t
0v
1z
0~
0*!
1Z
1-!
0+!
0'!
0!!
1{
0w
0u
1s
1_
1C
1M
0N
0O
1Q
0S
0V
0X
1Y
1$
0%
0'
0*
1,
0.
0/
10
1:
#220000
b100000011000110001001111 !
b100000011000110001011111 !
b100000011100110001011111 !
b100001011100110001011111 !
b100001111100110001011111 !
b100001111101110001011111 !
b100001111101110001011101 !
b100001111111110001011101 !
b100001111111100001011101 !
b100001111111100000011101 !
b100001111111100000111101 !
0"
0^
1d
1f
0h
0p
1t
1v
1x
1|
1~
1"!
0Z
#225000
b101001111111100000111101 !
b101001111111000000111101 !
b101101111111000000111101 !
b101101110111000000111101 !
b101101110111000000110101 !
b101101110111001000110101 !
b101101100111001000110101 !
b101101100111001000100101 !
b101101100011001000100101 !
b101100100011001000100101 !
b101100100011001000100111 !
b101100100011001001100111 !
1"
1^
0b
0d
1h
1n
0r
0x
0z
0|
0"!
1&!
1(!
1Z
1)!
1'!
1!!
0{
1w
1u
0s
0q
1o
1g
0c
0E
1G
1K
0L
0M
1N
1O
0Q
1S
1V
1W
1&
1'
1*
0,
1.
1/
00
01
12
16
08
#230000
b101100100011001001100110 !
b111100100011001001100110 !
b111100100010001001100110 !
b111100100010001001000110 !
b110100100010001001000110 !
b110100100010101001000110 !
b110100101010101001000110 !
b110100101010101001001110 !
b110100101010100001001110 !
b110100101010100001011110 !
b110100101110100001011110 !
b110100101110100001011100 !
0"
0[
0^
1b
1d
0f
0n
1r
0t
1x
1z
0(!
1*!
0Z
#235000
b110110101110100001011100 !
b110110101110100101011100 !
b110110001110100101011100 !
b110010001110100101011100 !
b110011001110100101011100 !
b110011001110100100011100 !
b100011001110100100011100 !
b100011001111100100011100 !
b100011001111100100111100 !
b101011001111100100111100 !
b101011001111101100111100 !
b101011001111101100101100 !
b101011001011101100101100 !
b101011001011101100101110 !
1"
1^
0d
1f
0h
1l
1n
1t
0x
0~
1"!
1$!
0&!
1(!
0*!
1Z
0'!
1%!
1#!
0!!
1{
1s
1m
0i
1c
0]
0B
1E
0H
1J
1M
1Q
0S
1T
1U
0V
0'
1(
1)
0*
1,
10
13
05
18
0;
#240000
b101011001011101110101110 !
b101011001011101110101010 !
b1011001011101110101010 !
b1011001001101110101010 !
b1011001001101110101011 !
b1011001001101110100011 !
b1011101001101110100011 !
b1011101000101110100011 !
b1011101000101110000011 !
b1011101100101110000011 !
b1011101100101110000001 !
0"
1[
0^
0`
0b
0f
1j
0t
0v
1x
1~
0,!
0Z
#245000
b1011101100111110000001 !
b1011111100111110000001 !
b1011111100011110000001 !
b1010111100011110000001 !
b1010111100011111000001 !
b11010111100011111000001 !
b10010111100011111000001 !
b10010111100011101000001 !
b10010111100011101000000 !
b10010111100011101001000 !
b10010111101011101001000 !
b10010111001011101001000 !
b10010111001011101001010 !
1"
0[
1^
1b
1h
0j
1p
0r
1t
0x
1|
0"!
0(!
1*!
1Z
0-!
1+!
0)!
0#!
1!!
1}
0w
0s
1q
1i
0g
0a
0D
0G
1H
1L
0M
0O
1R
1S
0T
0W
1X
0Y
0$
1%
0&
0)
1*
1+
0.
00
11
15
06
09
